Release 13.2 - xst O.61xd (nt)
Copyright (c) 1995-2011 Xilinx, Inc.  All rights reserved.
--> 
TABLE OF CONTENTS
  1) Synthesis Options Summary
  2) HDL Compilation
  3) Design Hierarchy Analysis
  4) HDL Analysis
  5) HDL Synthesis
     5.1) HDL Synthesis Report
  6) Advanced HDL Synthesis
     6.1) Advanced HDL Synthesis Report
  7) Low Level Synthesis
  8) Partition Report
  9) Final Report
	9.1) Device utilization summary
	9.2) Partition Resource Summary
	9.3) TIMING REPORT


=========================================================================
*                      Synthesis Options Summary                        *
=========================================================================
---- Source Parameters
Input File Name                    : "xst_jtagcosim_top.prj"
Input Format                       : mixed

---- Target Parameters
Output File Name                   : "jtagcosim_top.ngc"
Output Format                      : NGC
Target Device                      : xc5vlx110t-1ff1136

---- Source Options
Entity Name                        : jtagcosim_top
Top Module Name                    : jtagcosim_top
Automatic Register Balancing       : no

---- Target Options
Add IO Buffers                     : NO
Pack IO Registers into IOBs        : Auto

---- General Options
Keep Hierarchy                     : NO
Bus Delimiter                      : ()
Hierarchy Separator                : /

---- Other Options
report_timing_constraint_problems  : warning

=========================================================================

WARNING:Xst:29 - Optimization Effort not specified
The following parameters have been added:
Optimization Goal                  : SPEED

=========================================================================

=========================================================================
*                          HDL Compilation                              *
=========================================================================
Compiling vhdl file "C:/Documents and Settings/TEMP.IIST-BC302C6023.002/My Documents/Stegan/netlist/synth_wrapper/jtagcosim_top.vhd" in Library work.
Package <conv_pkg> compiled.
Package body <conv_pkg> compiled.
Entity <single_reg_w_init> compiled.
Entity <single_reg_w_init> (Architecture <structural>) compiled.
Entity <synth_reg_w_init> compiled.
Entity <synth_reg_w_init> (Architecture <structural>) compiled.
Entity <xlslicer> compiled.
Entity <xlslicer> (Architecture <behavior>) compiled.
Entity <xland2> compiled.
Entity <xland2> (Architecture <behavior>) compiled.
Entity <xlreqgrantmanager> compiled.
Entity <xlreqgrantmanager> (Architecture <structural>) compiled.
Entity <xlmemmap> compiled.
Entity <xlmemmap> (Architecture <behavioral>) compiled.
Entity <sysgen_hw_cosim_interface> compiled.
Entity <sysgen_hw_cosim_interface> (Architecture <structural>) compiled.
Entity <xliobuf> compiled.
Entity <xliobuf> (Architecture <structural>) compiled.
Entity <xlibuf> compiled.
Entity <xlibuf> (Architecture <structural>) compiled.
Entity <xlobuf> compiled.
Entity <xlobuf> (Architecture <structural>) compiled.
Entity <xlibufds> compiled.
Entity <xlibufds> (Architecture <structural>) compiled.
Entity <xlobufds> compiled.
Entity <xlobufds> (Architecture <structural>) compiled.
Entity <jtagcosim_top> compiled.
Entity <jtagcosim_top> (Architecture <structural>) compiled.

=========================================================================
*                     Design Hierarchy Analysis                         *
=========================================================================
Analyzing hierarchy for entity <jtagcosim_top> in library <work> (architecture <structural>).

Analyzing hierarchy for entity <sysgen_hw_cosim_interface> in library <work> (architecture <structural>).

Analyzing hierarchy for entity <xlmemmap> in library <work> (architecture <behavioral>) with generics.
	data_width = 32


=========================================================================
*                            HDL Analysis                               *
=========================================================================
Analyzing Entity <jtagcosim_top> in library <work> (Architecture <structural>).
WARNING:Xst:2211 - "C:/Documents and Settings/TEMP.IIST-BC302C6023.002/My Documents/Stegan/netlist/synth_wrapper/jtagcosim_top.vhd" line 2172: Instantiating black box module <BUFG>.
WARNING:Xst:2211 - "C:/Documents and Settings/TEMP.IIST-BC302C6023.002/My Documents/Stegan/netlist/synth_wrapper/jtagcosim_top.vhd" line 2178: Instantiating black box module <BUFGMUX>.
WARNING:Xst:2211 - "C:/Documents and Settings/TEMP.IIST-BC302C6023.002/My Documents/Stegan/netlist/synth_wrapper/jtagcosim_top.vhd" line 2186: Instantiating black box module <BUFGMUX>.
WARNING:Xst:2211 - "C:/Documents and Settings/TEMP.IIST-BC302C6023.002/My Documents/Stegan/netlist/synth_wrapper/jtagcosim_top.vhd" line 2194: Instantiating black box module <IBUFG>.
WARNING:Xst:2211 - "C:/Documents and Settings/TEMP.IIST-BC302C6023.002/My Documents/Stegan/netlist/synth_wrapper/jtagcosim_top.vhd" line 2200: Instantiating black box module <jtagcosim_iface_virtex5>.
Entity <jtagcosim_top> analyzed. Unit <jtagcosim_top> generated.

Analyzing Entity <sysgen_hw_cosim_interface> in library <work> (Architecture <structural>).
    Set property "syn_keep = TRUE" for signal <clk_x1>.
    Set user-defined property "KEEP =  TRUE" for signal <clk_x1> (previous value was "KEEP soft").
WARNING:Xst:37 - Detected unknown constraint/property "preserve_signal". This constraint/property is not supported by the current software release and will be ignored.
    Set property "syn_keep = TRUE" for signal <pci_clk_x0>.
    Set user-defined property "KEEP =  TRUE" for signal <pci_clk_x0> (previous value was "KEEP soft").
WARNING:Xst:37 - Detected unknown constraint/property "preserve_signal". This constraint/property is not supported by the current software release and will be ignored.
    Set property "buffer_type = none" for signal <pci_clk_x0>.
WARNING:Xst:2211 - "C:/Documents and Settings/TEMP.IIST-BC302C6023.002/My Documents/Stegan/netlist/synth_wrapper/jtagcosim_top.vhd" line 1894: Instantiating black box module <stegan_cw>.
Entity <sysgen_hw_cosim_interface> analyzed. Unit <sysgen_hw_cosim_interface> generated.

Analyzing generic Entity <xlmemmap> in library <work> (Architecture <behavioral>).
	data_width = 32
Entity <xlmemmap> analyzed. Unit <xlmemmap> generated.


=========================================================================
*                           HDL Synthesis                               *
=========================================================================

Performing bidirectional port resolution...

Synthesizing Unit <xlmemmap>.
    Related source file is "C:/Documents and Settings/TEMP.IIST-BC302C6023.002/My Documents/Stegan/netlist/synth_wrapper/jtagcosim_top.vhd".
WARNING:Xst:647 - Input <data_in<31:8>> is never used. This port will be preserved and left unconnected if it belongs to a top-level block or it belongs to a sub-block and the hierarchy of this sub-block is preserved.
WARNING:Xst:647 - Input <re> is never used. This port will be preserved and left unconnected if it belongs to a top-level block or it belongs to a sub-block and the hierarchy of this sub-block is preserved.
    Found 32-bit register for signal <data_out_mm>.
    Found 8-bit register for signal <int_mm_red1>.
    Summary:
	inferred  40 D-type flip-flop(s).
Unit <xlmemmap> synthesized.


Synthesizing Unit <sysgen_hw_cosim_interface>.
    Related source file is "C:/Documents and Settings/TEMP.IIST-BC302C6023.002/My Documents/Stegan/netlist/synth_wrapper/jtagcosim_top.vhd".
WARNING:Xst:1780 - Signal <clk_x0> is never used or assigned. This unconnected signal will be trimmed during the optimization process.
Unit <sysgen_hw_cosim_interface> synthesized.


Synthesizing Unit <jtagcosim_top>.
    Related source file is "C:/Documents and Settings/TEMP.IIST-BC302C6023.002/My Documents/Stegan/netlist/synth_wrapper/jtagcosim_top.vhd".
Unit <jtagcosim_top> synthesized.


=========================================================================
HDL Synthesis Report

Macro Statistics
# Registers                                            : 2
 32-bit register                                       : 1
 8-bit register                                        : 1

=========================================================================

=========================================================================
*                       Advanced HDL Synthesis                          *
=========================================================================


=========================================================================
Advanced HDL Synthesis Report

Macro Statistics
# Registers                                            : 40
 Flip-Flops                                            : 40

=========================================================================

=========================================================================
*                         Low Level Synthesis                           *
=========================================================================
WARNING:Xst:1710 - FF/Latch <data_out_mm_31> (without init value) has a constant value of 0 in block <xlmemmap>. This FF/Latch will be trimmed during the optimization process.
WARNING:Xst:1895 - Due to other FF/Latch trimming, FF/Latch <data_out_mm_30> (without init value) has a constant value of 0 in block <xlmemmap>. This FF/Latch will be trimmed during the optimization process.
WARNING:Xst:1895 - Due to other FF/Latch trimming, FF/Latch <data_out_mm_29> (without init value) has a constant value of 0 in block <xlmemmap>. This FF/Latch will be trimmed during the optimization process.
WARNING:Xst:1895 - Due to other FF/Latch trimming, FF/Latch <data_out_mm_28> (without init value) has a constant value of 0 in block <xlmemmap>. This FF/Latch will be trimmed during the optimization process.
WARNING:Xst:1895 - Due to other FF/Latch trimming, FF/Latch <data_out_mm_27> (without init value) has a constant value of 0 in block <xlmemmap>. This FF/Latch will be trimmed during the optimization process.
WARNING:Xst:1895 - Due to other FF/Latch trimming, FF/Latch <data_out_mm_26> (without init value) has a constant value of 0 in block <xlmemmap>. This FF/Latch will be trimmed during the optimization process.
WARNING:Xst:1895 - Due to other FF/Latch trimming, FF/Latch <data_out_mm_25> (without init value) has a constant value of 0 in block <xlmemmap>. This FF/Latch will be trimmed during the optimization process.
WARNING:Xst:1895 - Due to other FF/Latch trimming, FF/Latch <data_out_mm_24> (without init value) has a constant value of 0 in block <xlmemmap>. This FF/Latch will be trimmed during the optimization process.
WARNING:Xst:1895 - Due to other FF/Latch trimming, FF/Latch <data_out_mm_23> (without init value) has a constant value of 0 in block <xlmemmap>. This FF/Latch will be trimmed during the optimization process.
WARNING:Xst:1895 - Due to other FF/Latch trimming, FF/Latch <data_out_mm_22> (without init value) has a constant value of 0 in block <xlmemmap>. This FF/Latch will be trimmed during the optimization process.
WARNING:Xst:1895 - Due to other FF/Latch trimming, FF/Latch <data_out_mm_21> (without init value) has a constant value of 0 in block <xlmemmap>. This FF/Latch will be trimmed during the optimization process.
WARNING:Xst:1895 - Due to other FF/Latch trimming, FF/Latch <data_out_mm_20> (without init value) has a constant value of 0 in block <xlmemmap>. This FF/Latch will be trimmed during the optimization process.
WARNING:Xst:1895 - Due to other FF/Latch trimming, FF/Latch <data_out_mm_19> (without init value) has a constant value of 0 in block <xlmemmap>. This FF/Latch will be trimmed during the optimization process.
WARNING:Xst:1895 - Due to other FF/Latch trimming, FF/Latch <data_out_mm_18> (without init value) has a constant value of 0 in block <xlmemmap>. This FF/Latch will be trimmed during the optimization process.
WARNING:Xst:1895 - Due to other FF/Latch trimming, FF/Latch <data_out_mm_17> (without init value) has a constant value of 0 in block <xlmemmap>. This FF/Latch will be trimmed during the optimization process.
WARNING:Xst:1895 - Due to other FF/Latch trimming, FF/Latch <data_out_mm_16> (without init value) has a constant value of 0 in block <xlmemmap>. This FF/Latch will be trimmed during the optimization process.
WARNING:Xst:1895 - Due to other FF/Latch trimming, FF/Latch <data_out_mm_15> (without init value) has a constant value of 0 in block <xlmemmap>. This FF/Latch will be trimmed during the optimization process.
WARNING:Xst:1895 - Due to other FF/Latch trimming, FF/Latch <data_out_mm_14> (without init value) has a constant value of 0 in block <xlmemmap>. This FF/Latch will be trimmed during the optimization process.
WARNING:Xst:1895 - Due to other FF/Latch trimming, FF/Latch <data_out_mm_13> (without init value) has a constant value of 0 in block <xlmemmap>. This FF/Latch will be trimmed during the optimization process.
WARNING:Xst:1895 - Due to other FF/Latch trimming, FF/Latch <data_out_mm_12> (without init value) has a constant value of 0 in block <xlmemmap>. This FF/Latch will be trimmed during the optimization process.
WARNING:Xst:1895 - Due to other FF/Latch trimming, FF/Latch <data_out_mm_11> (without init value) has a constant value of 0 in block <xlmemmap>. This FF/Latch will be trimmed during the optimization process.
WARNING:Xst:1895 - Due to other FF/Latch trimming, FF/Latch <data_out_mm_10> (without init value) has a constant value of 0 in block <xlmemmap>. This FF/Latch will be trimmed during the optimization process.
WARNING:Xst:1895 - Due to other FF/Latch trimming, FF/Latch <data_out_mm_9> (without init value) has a constant value of 0 in block <xlmemmap>. This FF/Latch will be trimmed during the optimization process.
WARNING:Xst:1895 - Due to other FF/Latch trimming, FF/Latch <data_out_mm_8> (without init value) has a constant value of 0 in block <xlmemmap>. This FF/Latch will be trimmed during the optimization process.
INFO:Xst:1901 - Instance bufgmux_comp1 in unit jtagcosim_top of type BUFGMUX has been replaced by BUFGCTRL
INFO:Xst:1901 - Instance bufgmux_comp2 in unit jtagcosim_top of type BUFGMUX has been replaced by BUFGCTRL

Optimizing unit <jtagcosim_top> ...

Optimizing unit <xlmemmap> ...

Mapping all equations...
Building and optimizing final netlist ...

Final Macro Processing ...

=========================================================================
Final Register Report

Macro Statistics
# Registers                                            : 16
 Flip-Flops                                            : 16

=========================================================================

=========================================================================
*                           Partition Report                            *
=========================================================================

Partition Implementation Status
-------------------------------

  No Partitions were found in this design.

-------------------------------

=========================================================================
*                            Final Report                               *
=========================================================================
Final Results
Top Level Output File Name         : jtagcosim_top.ngc
Output Format                      : NGC
Optimization Goal                  : SPEED
Keep Hierarchy                     : NO

Design Statistics
# IOs                              : 1

Cell Usage :
# BELS                             : 21
#      GND                         : 1
#      INV                         : 1
#      LUT2                        : 1
#      LUT3                        : 2
#      LUT4                        : 2
#      LUT5                        : 8
#      LUT6                        : 5
#      VCC                         : 1
# FlipFlops/Latches                : 16
#      FDE                         : 16
# Clock Buffers                    : 3
#      BUFG                        : 1
#      BUFGCTRL                    : 2
# IO Buffers                       : 1
#      IBUFG                       : 1
# Others                           : 2
#      jtagcosim_iface_virtex5     : 1
#      stegan_cw                   : 1
=========================================================================

Device utilization summary:
---------------------------

Selected Device : 5vlx110tff1136-1 


Slice Logic Utilization: 
 Number of Slice Registers:              16  out of  69120     0%  
 Number of Slice LUTs:                   19  out of  69120     0%  
    Number used as Logic:                19  out of  69120     0%  

Slice Logic Distribution: 
 Number of LUT Flip Flop pairs used:     23
   Number with an unused Flip Flop:       7  out of     23    30%  
   Number with an unused LUT:             4  out of     23    17%  
   Number of fully used LUT-FF pairs:    12  out of     23    52%  
   Number of unique control sets:         2

IO Utilization: 
 Number of IOs:                           1
 Number of bonded IOBs:                   1  out of    640     0%  

Specific Feature Utilization:
 Number of BUFG/BUFGCTRLs:                3  out of     32     9%  

---------------------------
Partition Resource Summary:
---------------------------

  No Partitions were found in this design.

---------------------------


=========================================================================
TIMING REPORT

NOTE: THESE TIMING NUMBERS ARE ONLY A SYNTHESIS ESTIMATE.
      FOR ACCURATE TIMING INFORMATION PLEASE REFER TO THE TRACE REPORT
      GENERATED AFTER PLACE-and-ROUTE.

Clock Information:
------------------
-----------------------------------+------------------------+-------+
Clock Signal                       | Clock buffer(FF name)  | Load  |
-----------------------------------+------------------------+-------+
sys_clk                            | IBUFG+BUFG+BUFGCTRL    | 16    |
-----------------------------------+------------------------+-------+

Asynchronous Control Signals Information:
----------------------------------------
No asynchronous control signals found in this design

Timing Summary:
---------------
Speed Grade: -1

   Minimum period: 1.045ns (Maximum Frequency: 956.938MHz)
   Minimum input arrival time before clock: 3.251ns
   Maximum output required time after clock: 0.807ns
   Maximum combinational path delay: No path found

Timing Detail:
--------------
All values displayed in nanoseconds (ns)

=========================================================================
Timing constraint: Default period analysis for Clock 'sys_clk'
  Clock period: 1.045ns (frequency: 956.938MHz)
  Total number of paths / destination ports: 8 / 8
-------------------------------------------------------------------------
Delay:               1.045ns (Levels of Logic = 1)
  Source:            sysgen_hwcosim_iface/memory_map/data_out_mm_7 (FF)
  Destination:       sysgen_hwcosim_iface/memory_map/data_out_mm_7 (FF)
  Source Clock:      sys_clk rising
  Destination Clock: sys_clk rising

  Data Path: sysgen_hwcosim_iface/memory_map/data_out_mm_7 to sysgen_hwcosim_iface/memory_map/data_out_mm_7
                                Gate     Net
    Cell:in->out      fanout   Delay   Delay  Logical Name (Net Name)
    ----------------------------------------  ------------
     FDE:C->Q              1   0.471   0.480  sysgen_hwcosim_iface/memory_map/data_out_mm_7 (sysgen_hwcosim_iface/memory_map/data_out_mm_7)
     LUT5:I4->O            1   0.094   0.000  sysgen_hwcosim_iface/memory_map/data_out_mm_mux0000(7)1 (sysgen_hwcosim_iface/memory_map/data_out_mm_mux0000(7))
     FDE:D                    -0.018          sysgen_hwcosim_iface/memory_map/data_out_mm_7
    ----------------------------------------
    Total                      1.045ns (0.565ns logic, 0.480ns route)
                                       (54.1% logic, 45.9% route)

=========================================================================
Timing constraint: Default OFFSET IN BEFORE for Clock 'sys_clk'
  Total number of paths / destination ports: 547 / 32
-------------------------------------------------------------------------
Offset:              3.251ns (Levels of Logic = 3)
  Source:            jtag_iface:addr(21) (PAD)
  Destination:       sysgen_hwcosim_iface/memory_map/int_mm_red1_7 (FF)
  Destination Clock: sys_clk rising

  Data Path: jtag_iface:addr(21) to sysgen_hwcosim_iface/memory_map/int_mm_red1_7
                                Gate     Net
    Cell:in->out      fanout   Delay   Delay  Logical Name (Net Name)
    ----------------------------------------  ------------
    jtagcosim_iface_virtex5:addr(21)    1   0.000   1.069  jtag_iface (jtag_iface_addr(21))
     LUT6:I0->O            1   0.094   0.789  sysgen_hwcosim_iface/memory_map/int_mm_red1_not0001135 (sysgen_hwcosim_iface/memory_map/int_mm_red1_not0001135)
     LUT4:I0->O            9   0.094   0.524  sysgen_hwcosim_iface/memory_map/int_mm_red1_not00011164 (sysgen_hwcosim_iface/memory_map/data_out_mm_and0000)
     LUT5:I4->O            8   0.094   0.374  sysgen_hwcosim_iface/memory_map/int_mm_red1_not00012 (sysgen_hwcosim_iface/memory_map/int_mm_red1_not0001)
     FDE:CE                    0.213          sysgen_hwcosim_iface/memory_map/int_mm_red1_0
    ----------------------------------------
    Total                      3.251ns (0.495ns logic, 2.756ns route)
                                       (15.2% logic, 84.8% route)

=========================================================================
Timing constraint: Default OFFSET OUT AFTER for Clock 'sys_clk'
  Total number of paths / destination ports: 16 / 16
-------------------------------------------------------------------------
Offset:              0.807ns (Levels of Logic = 0)
  Source:            sysgen_hwcosim_iface/memory_map/data_out_mm_7 (FF)
  Destination:       jtag_iface:data_out(7) (PAD)
  Source Clock:      sys_clk rising

  Data Path: sysgen_hwcosim_iface/memory_map/data_out_mm_7 to jtag_iface:data_out(7)
                                Gate     Net
    Cell:in->out      fanout   Delay   Delay  Logical Name (Net Name)
    ----------------------------------------  ------------
     FDE:C->Q              1   0.471   0.336  sysgen_hwcosim_iface/memory_map/data_out_mm_7 (sysgen_hwcosim_iface/memory_map/data_out_mm_7)
    jtagcosim_iface_virtex5:data_out(7)        0.000          jtag_iface
    ----------------------------------------
    Total                      0.807ns (0.471ns logic, 0.336ns route)
                                       (58.4% logic, 41.6% route)

=========================================================================


Total REAL time to Xst completion: 4.00 secs
Total CPU time to Xst completion: 4.53 secs
 
--> 

Total memory usage is 168828 kilobytes

Number of errors   :    0 (   0 filtered)
Number of warnings :   36 (   0 filtered)
Number of infos    :    2 (   0 filtered)

