(['/mnt/d54b64d6-3817-4c65-ab73-05074b08b2fa/IIST/Sem5/Projects/DSP/stegan.py'],
 ['/mnt/d54b64d6-3817-4c65-ab73-05074b08b2fa/IIST/Sem5/Projects/DSP',
  '/mnt/d54b64d6-3817-4c65-ab73-05074b08b2fa/IIST/Sem5/Projects/DSP'],
 ['codecs'],
 None,
 [],
 [],
 None,
 None,
 [('pyi_rth__tkinter', '/home/anandsanto/.local/lib/python2.7/site-packages/PyInstaller/loader/rthooks/pyi_rth__tkinter.py', 'PYSOURCE'), ('stegan', '/mnt/d54b64d6-3817-4c65-ab73-05074b08b2fa/IIST/Sem5/Projects/DSP/stegan.py', 'PYSOURCE')],
 [('os', '/usr/lib/python2.7/os.py', 'PYMODULE'), ('copy_reg', '/usr/lib/python2.7/copy_reg.py', 'PYMODULE'), ('types', '/usr/lib/python2.7/types.py', 'PYMODULE'), ('subprocess', '/usr/lib/python2.7/subprocess.py', 'PYMODULE'), ('pickle', '/usr/lib/python2.7/pickle.py', 'PYMODULE'), ('doctest', '/usr/lib/python2.7/doctest.py', 'PYMODULE'), ('collections', '/usr/lib/python2.7/collections.py', 'PYMODULE'), ('dummy_thread', '/usr/lib/python2.7/dummy_thread.py', 'PYMODULE'), ('heapq', '/usr/lib/python2.7/heapq.py', 'PYMODULE'), ('keyword', '/usr/lib/python2.7/keyword.py', 'PYMODULE'), ('_abcoll', '/usr/lib/python2.7/_abcoll.py', 'PYMODULE'), ('abc', '/usr/lib/python2.7/abc.py', 'PYMODULE'), ('_weakrefset', '/usr/lib/python2.7/_weakrefset.py', 'PYMODULE'), ('tempfile', '/usr/lib/python2.7/tempfile.py', 'PYMODULE'), ('random', '/usr/lib/python2.7/random.py', 'PYMODULE'), ('_strptime', '/usr/lib/python2.7/_strptime.py', 'PYMODULE'), ('calendar', '/usr/lib/python2.7/calendar.py', 'PYMODULE'), ('optparse', '/usr/lib/python2.7/optparse.py', 'PYMODULE'), ('gettext', '/usr/lib/python2.7/gettext.py', 'PYMODULE'), ('tokenize', '/usr/lib/python2.7/tokenize.py', 'PYMODULE'), ('string', '/usr/lib/python2.7/string.py', 'PYMODULE'), ('token', '/usr/lib/python2.7/token.py', 'PYMODULE'), ('copy', '/usr/lib/python2.7/copy.py', 'PYMODULE'), ('repr', '/usr/lib/python2.7/repr.py', 'PYMODULE'), ('weakref', '/usr/lib/python2.7/weakref.py', 'PYMODULE'), ('textwrap', '/usr/lib/python2.7/textwrap.py', 'PYMODULE'), ('locale', '/usr/lib/python2.7/locale.py', 'PYMODULE'), ('functools', '/usr/lib/python2.7/functools.py', 'PYMODULE'), ('hashlib', '/usr/lib/python2.7/hashlib.py', 'PYMODULE'), ('logging', '/usr/lib/python2.7/logging/__init__.py', 'PYMODULE'), ('atexit', '/usr/lib/python2.7/atexit.py', 'PYMODULE'), ('io', '/usr/lib/python2.7/io.py', 'PYMODULE'), ('pdb', '/usr/lib/python2.7/pdb.py', 'PYMODULE'), ('shlex', '/usr/lib/python2.7/shlex.py', 'PYMODULE'), ('pprint', '/usr/lib/python2.7/pprint.py', 'PYMODULE'), ('bdb', '/usr/lib/python2.7/bdb.py', 'PYMODULE'), ('fnmatch', '/usr/lib/python2.7/fnmatch.py', 'PYMODULE'), ('cmd', '/usr/lib/python2.7/cmd.py', 'PYMODULE'), ('difflib', '/usr/lib/python2.7/difflib.py', 'PYMODULE'), ('unittest', '/usr/lib/python2.7/unittest/__init__.py', 'PYMODULE'), ('unittest.signals', '/usr/lib/python2.7/unittest/signals.py', 'PYMODULE'), ('unittest.main', '/usr/lib/python2.7/unittest/main.py', 'PYMODULE'), ('getopt', '/usr/lib/python2.7/getopt.py', 'PYMODULE'), ('unittest.runner', '/usr/lib/python2.7/unittest/runner.py', 'PYMODULE'), ('unittest.loader', '/usr/lib/python2.7/unittest/loader.py', 'PYMODULE'), ('unittest.suite', '/usr/lib/python2.7/unittest/suite.py', 'PYMODULE'), ('unittest.case', '/usr/lib/python2.7/unittest/case.py', 'PYMODULE'), ('unittest.result', '/usr/lib/python2.7/unittest/result.py', 'PYMODULE'), ('unittest.util', '/usr/lib/python2.7/unittest/util.py', 'PYMODULE'), ('linecache', '/usr/lib/python2.7/linecache.py', 'PYMODULE'), ('inspect', '/usr/lib/python2.7/inspect.py', 'PYMODULE'), ('dis', '/usr/lib/python2.7/dis.py', 'PYMODULE'), ('opcode', '/usr/lib/python2.7/opcode.py', 'PYMODULE'), ('__future__', '/usr/lib/python2.7/__future__.py', 'PYMODULE'), ('StringIO', '/usr/lib/python2.7/StringIO.py', 'PYMODULE'), ('re', '/usr/lib/python2.7/re.py', 'PYMODULE'), ('sre_constants', '/usr/lib/python2.7/sre_constants.py', 'PYMODULE'), ('sre', '/usr/lib/python2.7/sre.py', 'PYMODULE'), ('sre_parse', '/usr/lib/python2.7/sre_parse.py', 'PYMODULE'), ('sre_compile', '/usr/lib/python2.7/sre_compile.py', 'PYMODULE'), ('struct', '/usr/lib/python2.7/struct.py', 'PYMODULE'), ('threading', '/usr/lib/python2.7/threading.py', 'PYMODULE'), ('_threading_local', '/usr/lib/python2.7/_threading_local.py', 'PYMODULE'), ('traceback', '/usr/lib/python2.7/traceback.py', 'PYMODULE'), ('warnings', '/usr/lib/python2.7/warnings.py', 'PYMODULE'), ('UserDict', '/usr/lib/python2.7/UserDict.py', 'PYMODULE'), ('os2emxpath', '/usr/lib/python2.7/os2emxpath.py', 'PYMODULE'), ('genericpath', '/usr/lib/python2.7/genericpath.py', 'PYMODULE'), ('stat', '/usr/lib/python2.7/stat.py', 'PYMODULE'), ('ntpath', '/usr/lib/python2.7/ntpath.py', 'PYMODULE'), ('posixpath', '/usr/lib/python2.7/posixpath.py', 'PYMODULE'), ('encodings.aliases', '/usr/lib/python2.7/encodings/aliases.py', 'PYMODULE'), ('encodings', '/usr/lib/python2.7/encodings/__init__.py', 'PYMODULE'), ('encodings.rot_13', '/usr/lib/python2.7/encodings/rot_13.py', 'PYMODULE'), ('encodings.mbcs', '/usr/lib/python2.7/encodings/mbcs.py', 'PYMODULE'), ('encodings.raw_unicode_escape', '/usr/lib/python2.7/encodings/raw_unicode_escape.py', 'PYMODULE'), ('encodings.gb18030', '/usr/lib/python2.7/encodings/gb18030.py', 'PYMODULE'), ('encodings.idna', '/usr/lib/python2.7/encodings/idna.py', 'PYMODULE'), ('stringprep', '/usr/lib/python2.7/stringprep.py', 'PYMODULE'), ('encodings.shift_jisx0213', '/usr/lib/python2.7/encodings/shift_jisx0213.py', 'PYMODULE'), ('encodings.ascii', '/usr/lib/python2.7/encodings/ascii.py', 'PYMODULE'), ('encodings.cp861', '/usr/lib/python2.7/encodings/cp861.py', 'PYMODULE'), ('encodings.cp860', '/usr/lib/python2.7/encodings/cp860.py', 'PYMODULE'), ('encodings.cp863', '/usr/lib/python2.7/encodings/cp863.py', 'PYMODULE'), ('encodings.shift_jis', '/usr/lib/python2.7/encodings/shift_jis.py', 'PYMODULE'), ('encodings.cp865', '/usr/lib/python2.7/encodings/cp865.py', 'PYMODULE'), ('encodings.cp864', '/usr/lib/python2.7/encodings/cp864.py', 'PYMODULE'), ('encodings.cp866', '/usr/lib/python2.7/encodings/cp866.py', 'PYMODULE'), ('encodings.cp869', '/usr/lib/python2.7/encodings/cp869.py', 'PYMODULE'), ('encodings.mac_latin2', '/usr/lib/python2.7/encodings/mac_latin2.py', 'PYMODULE'), ('encodings.hex_codec', '/usr/lib/python2.7/encodings/hex_codec.py', 'PYMODULE'), ('encodings.cp950', '/usr/lib/python2.7/encodings/cp950.py', 'PYMODULE'), ('encodings.quopri_codec', '/usr/lib/python2.7/encodings/quopri_codec.py', 'PYMODULE'), ('quopri', '/usr/lib/python2.7/quopri.py', 'PYMODULE'), ('encodings.utf_32_be', '/usr/lib/python2.7/encodings/utf_32_be.py', 'PYMODULE'), ('encodings.string_escape', '/usr/lib/python2.7/encodings/string_escape.py', 'PYMODULE'), ('encodings.cp1250', '/usr/lib/python2.7/encodings/cp1250.py', 'PYMODULE'), ('encodings.cp1251', '/usr/lib/python2.7/encodings/cp1251.py', 'PYMODULE'), ('encodings.cp1252', '/usr/lib/python2.7/encodings/cp1252.py', 'PYMODULE'), ('encodings.cp1253', '/usr/lib/python2.7/encodings/cp1253.py', 'PYMODULE'), ('encodings.cp1254', '/usr/lib/python2.7/encodings/cp1254.py', 'PYMODULE'), ('encodings.cp1255', '/usr/lib/python2.7/encodings/cp1255.py', 'PYMODULE'), ('encodings.cp1256', '/usr/lib/python2.7/encodings/cp1256.py', 'PYMODULE'), ('encodings.cp1257', '/usr/lib/python2.7/encodings/cp1257.py', 'PYMODULE'), ('encodings.cp1258', '/usr/lib/python2.7/encodings/cp1258.py', 'PYMODULE'), ('encodings.euc_jp', '/usr/lib/python2.7/encodings/euc_jp.py', 'PYMODULE'), ('encodings.hz', '/usr/lib/python2.7/encodings/hz.py', 'PYMODULE'), ('encodings.mac_cyrillic', '/usr/lib/python2.7/encodings/mac_cyrillic.py', 'PYMODULE'), ('encodings.iso2022_kr', '/usr/lib/python2.7/encodings/iso2022_kr.py', 'PYMODULE'), ('encodings.unicode_internal', '/usr/lib/python2.7/encodings/unicode_internal.py', 'PYMODULE'), ('encodings.cp500', '/usr/lib/python2.7/encodings/cp500.py', 'PYMODULE'), ('encodings.iso8859_10', '/usr/lib/python2.7/encodings/iso8859_10.py', 'PYMODULE'), ('encodings.iso8859_11', '/usr/lib/python2.7/encodings/iso8859_11.py', 'PYMODULE'), ('encodings.iso8859_13', '/usr/lib/python2.7/encodings/iso8859_13.py', 'PYMODULE'), ('encodings.iso8859_14', '/usr/lib/python2.7/encodings/iso8859_14.py', 'PYMODULE'), ('encodings.iso8859_15', '/usr/lib/python2.7/encodings/iso8859_15.py', 'PYMODULE'), ('encodings.iso8859_16', '/usr/lib/python2.7/encodings/iso8859_16.py', 'PYMODULE'), ('encodings.cp1006', '/usr/lib/python2.7/encodings/cp1006.py', 'PYMODULE'), ('encodings.hp_roman8', '/usr/lib/python2.7/encodings/hp_roman8.py', 'PYMODULE'), ('encodings.charmap', '/usr/lib/python2.7/encodings/charmap.py', 'PYMODULE'), ('encodings.utf_32', '/usr/lib/python2.7/encodings/utf_32.py', 'PYMODULE'), ('encodings.latin_1', '/usr/lib/python2.7/encodings/latin_1.py', 'PYMODULE'), ('encodings.utf_16_be', '/usr/lib/python2.7/encodings/utf_16_be.py', 'PYMODULE'), ('encodings.cp737', '/usr/lib/python2.7/encodings/cp737.py', 'PYMODULE'), ('encodings.utf_16', '/usr/lib/python2.7/encodings/utf_16.py', 'PYMODULE'), ('encodings.cp437', '/usr/lib/python2.7/encodings/cp437.py', 'PYMODULE'), ('encodings.mac_roman', '/usr/lib/python2.7/encodings/mac_roman.py', 'PYMODULE'), ('encodings.mac_centeuro', '/usr/lib/python2.7/encodings/mac_centeuro.py', 'PYMODULE'), ('encodings.mac_croatian', '/usr/lib/python2.7/encodings/mac_croatian.py', 'PYMODULE'), ('encodings.punycode', '/usr/lib/python2.7/encodings/punycode.py', 'PYMODULE'), ('encodings.unicode_escape', '/usr/lib/python2.7/encodings/unicode_escape.py', 'PYMODULE'), ('encodings.bz2_codec', '/usr/lib/python2.7/encodings/bz2_codec.py', 'PYMODULE'), ('encodings.cp874', '/usr/lib/python2.7/encodings/cp874.py', 'PYMODULE'), ('encodings.cp875', '/usr/lib/python2.7/encodings/cp875.py', 'PYMODULE'), ('encodings.cp720', '/usr/lib/python2.7/encodings/cp720.py', 'PYMODULE'), ('encodings.tis_620', '/usr/lib/python2.7/encodings/tis_620.py', 'PYMODULE'), ('encodings.zlib_codec', '/usr/lib/python2.7/encodings/zlib_codec.py', 'PYMODULE'), ('encodings.iso2022_jp_2004', '/usr/lib/python2.7/encodings/iso2022_jp_2004.py', 'PYMODULE'), ('encodings.euc_jisx0213', '/usr/lib/python2.7/encodings/euc_jisx0213.py', 'PYMODULE'), ('encodings.ptcp154', '/usr/lib/python2.7/encodings/ptcp154.py', 'PYMODULE'), ('encodings.uu_codec', '/usr/lib/python2.7/encodings/uu_codec.py', 'PYMODULE'), ('encodings.gb2312', '/usr/lib/python2.7/encodings/gb2312.py', 'PYMODULE'), ('encodings.utf_16_le', '/usr/lib/python2.7/encodings/utf_16_le.py', 'PYMODULE'), ('encodings.iso2022_jp_2', '/usr/lib/python2.7/encodings/iso2022_jp_2.py', 'PYMODULE'), ('encodings.iso2022_jp_3', '/usr/lib/python2.7/encodings/iso2022_jp_3.py', 'PYMODULE'), ('encodings.mac_farsi', '/usr/lib/python2.7/encodings/mac_farsi.py', 'PYMODULE'), ('encodings.undefined', '/usr/lib/python2.7/encodings/undefined.py', 'PYMODULE'), ('encodings.cp1026', '/usr/lib/python2.7/encodings/cp1026.py', 'PYMODULE'), ('encodings.iso2022_jp_1', '/usr/lib/python2.7/encodings/iso2022_jp_1.py', 'PYMODULE'), ('encodings.mac_turkish', '/usr/lib/python2.7/encodings/mac_turkish.py', 'PYMODULE'), ('encodings.koi8_u', '/usr/lib/python2.7/encodings/koi8_u.py', 'PYMODULE'), ('encodings.koi8_r', '/usr/lib/python2.7/encodings/koi8_r.py', 'PYMODULE'), ('encodings.utf_8_sig', '/usr/lib/python2.7/encodings/utf_8_sig.py', 'PYMODULE'), ('encodings.iso2022_jp', '/usr/lib/python2.7/encodings/iso2022_jp.py', 'PYMODULE'), ('encodings.palmos', '/usr/lib/python2.7/encodings/palmos.py', 'PYMODULE'), ('encodings.mac_greek', '/usr/lib/python2.7/encodings/mac_greek.py', 'PYMODULE'), ('encodings.shift_jis_2004', '/usr/lib/python2.7/encodings/shift_jis_2004.py', 'PYMODULE'), ('encodings.gbk', '/usr/lib/python2.7/encodings/gbk.py', 'PYMODULE'), ('encodings.mac_iceland', '/usr/lib/python2.7/encodings/mac_iceland.py', 'PYMODULE'), ('encodings.cp858', '/usr/lib/python2.7/encodings/cp858.py', 'PYMODULE'), ('encodings.cp850', '/usr/lib/python2.7/encodings/cp850.py', 'PYMODULE'), ('encodings.cp852', '/usr/lib/python2.7/encodings/cp852.py', 'PYMODULE'), ('encodings.cp855', '/usr/lib/python2.7/encodings/cp855.py', 'PYMODULE'), ('encodings.cp856', '/usr/lib/python2.7/encodings/cp856.py', 'PYMODULE'), ('encodings.cp857', '/usr/lib/python2.7/encodings/cp857.py', 'PYMODULE'), ('encodings.iso8859_4', '/usr/lib/python2.7/encodings/iso8859_4.py', 'PYMODULE'), ('encodings.iso8859_5', '/usr/lib/python2.7/encodings/iso8859_5.py', 'PYMODULE'), ('encodings.iso8859_6', '/usr/lib/python2.7/encodings/iso8859_6.py', 'PYMODULE'), ('encodings.iso8859_7', '/usr/lib/python2.7/encodings/iso8859_7.py', 'PYMODULE'), ('encodings.iso8859_1', '/usr/lib/python2.7/encodings/iso8859_1.py', 'PYMODULE'), ('encodings.iso8859_2', '/usr/lib/python2.7/encodings/iso8859_2.py', 'PYMODULE'), ('encodings.iso8859_3', '/usr/lib/python2.7/encodings/iso8859_3.py', 'PYMODULE'), ('encodings.mac_romanian', '/usr/lib/python2.7/encodings/mac_romanian.py', 'PYMODULE'), ('encodings.iso8859_8', '/usr/lib/python2.7/encodings/iso8859_8.py', 'PYMODULE'), ('encodings.iso8859_9', '/usr/lib/python2.7/encodings/iso8859_9.py', 'PYMODULE'), ('encodings.cp949', '/usr/lib/python2.7/encodings/cp949.py', 'PYMODULE'), ('encodings.big5hkscs', '/usr/lib/python2.7/encodings/big5hkscs.py', 'PYMODULE'), ('encodings.base64_codec', '/usr/lib/python2.7/encodings/base64_codec.py', 'PYMODULE'), ('base64', '/usr/lib/python2.7/base64.py', 'PYMODULE'), ('encodings.cp037', '/usr/lib/python2.7/encodings/cp037.py', 'PYMODULE'), ('encodings.utf_8', '/usr/lib/python2.7/encodings/utf_8.py', 'PYMODULE'), ('encodings.mac_arabic', '/usr/lib/python2.7/encodings/mac_arabic.py', 'PYMODULE'), ('encodings.euc_kr', '/usr/lib/python2.7/encodings/euc_kr.py', 'PYMODULE'), ('encodings.utf_7', '/usr/lib/python2.7/encodings/utf_7.py', 'PYMODULE'), ('encodings.utf_32_le', '/usr/lib/python2.7/encodings/utf_32_le.py', 'PYMODULE'), ('encodings.euc_jis_2004', '/usr/lib/python2.7/encodings/euc_jis_2004.py', 'PYMODULE'), ('encodings.cp775', '/usr/lib/python2.7/encodings/cp775.py', 'PYMODULE'), ('encodings.cp862', '/usr/lib/python2.7/encodings/cp862.py', 'PYMODULE'), ('encodings.cp1140', '/usr/lib/python2.7/encodings/cp1140.py', 'PYMODULE'), ('encodings.big5', '/usr/lib/python2.7/encodings/big5.py', 'PYMODULE'), ('encodings.cp424', '/usr/lib/python2.7/encodings/cp424.py', 'PYMODULE'), ('encodings.iso2022_jp_ext', '/usr/lib/python2.7/encodings/iso2022_jp_ext.py', 'PYMODULE'), ('encodings.johab', '/usr/lib/python2.7/encodings/johab.py', 'PYMODULE'), ('encodings.cp932', '/usr/lib/python2.7/encodings/cp932.py', 'PYMODULE'), ('codecs', '/usr/lib/python2.7/codecs.py', 'PYMODULE'), ('Image', '/usr/lib/python2.7/dist-packages/PILcompat/Image.py', 'PYMODULE'), ('PIL.Image', '/usr/lib/python2.7/dist-packages/PIL/Image.py', 'PYMODULE'), ('PIL.MspImagePlugin', '/usr/lib/python2.7/dist-packages/PIL/MspImagePlugin.py', 'PYMODULE'), ('PIL.ImageFile', '/usr/lib/python2.7/dist-packages/PIL/ImageFile.py', 'PYMODULE'), ('PIL.SunImagePlugin', '/usr/lib/python2.7/dist-packages/PIL/SunImagePlugin.py', 'PYMODULE'), ('PIL.IptcImagePlugin', '/usr/lib/python2.7/dist-packages/PIL/IptcImagePlugin.py', 'PYMODULE'), ('PIL.McIdasImagePlugin', '/usr/lib/python2.7/dist-packages/PIL/McIdasImagePlugin.py', 'PYMODULE'), ('PIL.MpegImagePlugin', '/usr/lib/python2.7/dist-packages/PIL/MpegImagePlugin.py', 'PYMODULE'), ('PIL.IcnsImagePlugin', '/usr/lib/python2.7/dist-packages/PIL/IcnsImagePlugin.py', 'PYMODULE'), ('PIL.ImImagePlugin', '/usr/lib/python2.7/dist-packages/PIL/ImImagePlugin.py', 'PYMODULE'), ('PIL.TiffImagePlugin', '/usr/lib/python2.7/dist-packages/PIL/TiffImagePlugin.py', 'PYMODULE'), ('PIL.TiffTags', '/usr/lib/python2.7/dist-packages/PIL/TiffTags.py', 'PYMODULE'), ('PIL.PsdImagePlugin', '/usr/lib/python2.7/dist-packages/PIL/PsdImagePlugin.py', 'PYMODULE'), ('PIL.FpxImagePlugin', '/usr/lib/python2.7/dist-packages/PIL/FpxImagePlugin.py', 'PYMODULE'), ('PIL.OleFileIO', '/usr/lib/python2.7/dist-packages/PIL/OleFileIO.py', 'PYMODULE'), ('PIL.TgaImagePlugin', '/usr/lib/python2.7/dist-packages/PIL/TgaImagePlugin.py', 'PYMODULE'), ('PIL.GbrImagePlugin', '/usr/lib/python2.7/dist-packages/PIL/GbrImagePlugin.py', 'PYMODULE'), ('PIL.PixarImagePlugin', '/usr/lib/python2.7/dist-packages/PIL/PixarImagePlugin.py', 'PYMODULE'), ('PIL.SgiImagePlugin', '/usr/lib/python2.7/dist-packages/PIL/SgiImagePlugin.py', 'PYMODULE'), ('PIL.Hdf5StubImagePlugin', '/usr/lib/python2.7/dist-packages/PIL/Hdf5StubImagePlugin.py', 'PYMODULE'), ('PIL.XVThumbImagePlugin', '/usr/lib/python2.7/dist-packages/PIL/XVThumbImagePlugin.py', 'PYMODULE'), ('PIL.FliImagePlugin', '/usr/lib/python2.7/dist-packages/PIL/FliImagePlugin.py', 'PYMODULE'), ('PIL.WebPImagePlugin', '/usr/lib/python2.7/dist-packages/PIL/WebPImagePlugin.py', 'PYMODULE'), ('PIL.XpmImagePlugin', '/usr/lib/python2.7/dist-packages/PIL/XpmImagePlugin.py', 'PYMODULE'), ('PIL.PalmImagePlugin', '/usr/lib/python2.7/dist-packages/PIL/PalmImagePlugin.py', 'PYMODULE'), ('PIL.GribStubImagePlugin', '/usr/lib/python2.7/dist-packages/PIL/GribStubImagePlugin.py', 'PYMODULE'), ('PIL.PcdImagePlugin', '/usr/lib/python2.7/dist-packages/PIL/PcdImagePlugin.py', 'PYMODULE'), ('PIL.ImtImagePlugin', '/usr/lib/python2.7/dist-packages/PIL/ImtImagePlugin.py', 'PYMODULE'), ('PIL.SpiderImagePlugin', '/usr/lib/python2.7/dist-packages/PIL/SpiderImagePlugin.py', 'PYMODULE'), ('PIL.ImageTk', '/usr/lib/python2.7/dist-packages/PIL/ImageTk.py', 'PYMODULE'), ('Tkinter', '/usr/lib/python2.7/lib-tk/Tkinter.py', 'PYMODULE'), ('Tkconstants', '/usr/lib/python2.7/lib-tk/Tkconstants.py', 'PYMODULE'), ('PIL.CurImagePlugin', '/usr/lib/python2.7/dist-packages/PIL/CurImagePlugin.py', 'PYMODULE'), ('PIL.PdfImagePlugin', '/usr/lib/python2.7/dist-packages/PIL/PdfImagePlugin.py', 'PYMODULE'), ('PIL.DcxImagePlugin', '/usr/lib/python2.7/dist-packages/PIL/DcxImagePlugin.py', 'PYMODULE'), ('PIL.IcoImagePlugin', '/usr/lib/python2.7/dist-packages/PIL/IcoImagePlugin.py', 'PYMODULE'), ('PIL.PcxImagePlugin', '/usr/lib/python2.7/dist-packages/PIL/PcxImagePlugin.py', 'PYMODULE'), ('PIL.BufrStubImagePlugin', '/usr/lib/python2.7/dist-packages/PIL/BufrStubImagePlugin.py', 'PYMODULE'), ('PIL.XbmImagePlugin', '/usr/lib/python2.7/dist-packages/PIL/XbmImagePlugin.py', 'PYMODULE'), ('PIL.EpsImagePlugin', '/usr/lib/python2.7/dist-packages/PIL/EpsImagePlugin.py', 'PYMODULE'), ('distutils.spawn', '/usr/lib/python2.7/distutils/spawn.py', 'PYMODULE'), ('distutils.sysconfig', '/usr/lib/python2.7/distutils/sysconfig.py', 'PYMODULE'), ('_sysconfigdata', '/usr/lib/python2.7/_sysconfigdata.py', 'PYMODULE'), ('_sysconfigdata_nd', '/usr/lib/python2.7/plat-x86_64-linux-gnu/_sysconfigdata_nd.py', 'PYMODULE'), ('_sysconfigdata_d', '/usr/lib/python2.7/plat-x86_64-linux-gnu/_sysconfigdata_d.py', 'PYMODULE'), ('distutils.text_file', '/usr/lib/python2.7/distutils/text_file.py', 'PYMODULE'), ('_osx_support', '/usr/lib/python2.7/_osx_support.py', 'PYMODULE'), ('contextlib', '/usr/lib/python2.7/contextlib.py', 'PYMODULE'), ('distutils.log', '/usr/lib/python2.7/distutils/log.py', 'PYMODULE'), ('distutils', '/usr/lib/python2.7/distutils/__init__.py', 'PYMODULE'), ('distutils.debug', '/usr/lib/python2.7/distutils/debug.py', 'PYMODULE'), ('distutils.errors', '/usr/lib/python2.7/distutils/errors.py', 'PYMODULE'), ('shutil', '/usr/lib/python2.7/shutil.py', 'PYMODULE'), ('zipfile', '/usr/lib/python2.7/zipfile.py', 'PYMODULE'), ('py_compile', '/usr/lib/python2.7/py_compile.py', 'PYMODULE'), ('tarfile', '/usr/lib/python2.7/tarfile.py', 'PYMODULE'), ('gzip', '/usr/lib/python2.7/gzip.py', 'PYMODULE'), ('PIL.MpoImagePlugin', '/usr/lib/python2.7/dist-packages/PIL/MpoImagePlugin.py', 'PYMODULE'), ('PIL.WmfImagePlugin', '/usr/lib/python2.7/dist-packages/PIL/WmfImagePlugin.py', 'PYMODULE'), ('PIL.MicImagePlugin', '/usr/lib/python2.7/dist-packages/PIL/MicImagePlugin.py', 'PYMODULE'), ('PIL.Jpeg2KImagePlugin', '/usr/lib/python2.7/dist-packages/PIL/Jpeg2KImagePlugin.py', 'PYMODULE'), ('PIL.FitsStubImagePlugin', '/usr/lib/python2.7/dist-packages/PIL/FitsStubImagePlugin.py', 'PYMODULE'), ('PIL.ImageShow', '/usr/lib/python2.7/dist-packages/PIL/ImageShow.py', 'PYMODULE'), ('pipes', '/usr/lib/python2.7/pipes.py', 'PYMODULE'), ('PIL.ImageColor', '/usr/lib/python2.7/dist-packages/PIL/ImageColor.py', 'PYMODULE'), ('colorsys', '/usr/lib/python2.7/colorsys.py', 'PYMODULE'), ('PIL.ImageChops', '/usr/lib/python2.7/dist-packages/PIL/ImageChops.py', 'PYMODULE'), ('PIL.PyAccess', '/usr/lib/python2.7/dist-packages/PIL/PyAccess.py', 'PYMODULE'), ('PIL.ImagePalette', '/usr/lib/python2.7/dist-packages/PIL/ImagePalette.py', 'PYMODULE'), ('PIL.PaletteFile', '/usr/lib/python2.7/dist-packages/PIL/PaletteFile.py', 'PYMODULE'), ('PIL.GimpGradientFile', '/usr/lib/python2.7/dist-packages/PIL/GimpGradientFile.py', 'PYMODULE'), ('PIL.GimpPaletteFile', '/usr/lib/python2.7/dist-packages/PIL/GimpPaletteFile.py', 'PYMODULE'), ('PIL.PngImagePlugin', '/usr/lib/python2.7/dist-packages/PIL/PngImagePlugin.py', 'PYMODULE'), ('PIL.PpmImagePlugin', '/usr/lib/python2.7/dist-packages/PIL/PpmImagePlugin.py', 'PYMODULE'), ('PIL.JpegImagePlugin', '/usr/lib/python2.7/dist-packages/PIL/JpegImagePlugin.py', 'PYMODULE'), ('PIL.JpegPresets', '/usr/lib/python2.7/dist-packages/PIL/JpegPresets.py', 'PYMODULE'), ('PIL.GifImagePlugin', '/usr/lib/python2.7/dist-packages/PIL/GifImagePlugin.py', 'PYMODULE'), ('PIL.BmpImagePlugin', '/usr/lib/python2.7/dist-packages/PIL/BmpImagePlugin.py', 'PYMODULE'), ('numbers', '/usr/lib/python2.7/numbers.py', 'PYMODULE'), ('PIL._util', '/usr/lib/python2.7/dist-packages/PIL/_util.py', 'PYMODULE'), ('PIL._binary', '/usr/lib/python2.7/dist-packages/PIL/_binary.py', 'PYMODULE'), ('PIL.ImageMode', '/usr/lib/python2.7/dist-packages/PIL/ImageMode.py', 'PYMODULE'), ('PIL', '/usr/lib/python2.7/dist-packages/PIL/__init__.py', 'PYMODULE')],
 [('libz.so.1', '/lib/x86_64-linux-gnu/libz.so.1', 'BINARY'), ('_hashlib', '/usr/lib/python2.7/lib-dynload/_hashlib.x86_64-linux-gnu.so', 'EXTENSION'), ('readline', '/usr/lib/python2.7/lib-dynload/readline.x86_64-linux-gnu.so', 'EXTENSION'), ('resource', '/usr/lib/python2.7/lib-dynload/resource.x86_64-linux-gnu.so', 'EXTENSION'), ('_multibytecodec', '/usr/lib/python2.7/lib-dynload/_multibytecodec.x86_64-linux-gnu.so', 'EXTENSION'), ('_codecs_cn', '/usr/lib/python2.7/lib-dynload/_codecs_cn.x86_64-linux-gnu.so', 'EXTENSION'), ('_codecs_jp', '/usr/lib/python2.7/lib-dynload/_codecs_jp.x86_64-linux-gnu.so', 'EXTENSION'), ('_codecs_tw', '/usr/lib/python2.7/lib-dynload/_codecs_tw.x86_64-linux-gnu.so', 'EXTENSION'), ('_codecs_iso2022', '/usr/lib/python2.7/lib-dynload/_codecs_iso2022.x86_64-linux-gnu.so', 'EXTENSION'), ('bz2', '/usr/lib/python2.7/lib-dynload/bz2.x86_64-linux-gnu.so', 'EXTENSION'), ('_codecs_kr', '/usr/lib/python2.7/lib-dynload/_codecs_kr.x86_64-linux-gnu.so', 'EXTENSION'), ('_codecs_hk', '/usr/lib/python2.7/lib-dynload/_codecs_hk.x86_64-linux-gnu.so', 'EXTENSION'), ('mmap', '/usr/lib/python2.7/lib-dynload/mmap.x86_64-linux-gnu.so', 'EXTENSION'), ('PIL._webp', '/usr/lib/python2.7/dist-packages/PIL/_webp.x86_64-linux-gnu.so', 'EXTENSION'), ('PIL._imagingtk', '/usr/lib/python2.7/dist-packages/PIL/_imagingtk.x86_64-linux-gnu.so', 'EXTENSION'), ('_tkinter', '/usr/lib/python2.7/lib-dynload/_tkinter.so', 'EXTENSION'), ('PIL._imaging', '/usr/lib/python2.7/dist-packages/PIL/_imaging.x86_64-linux-gnu.so', 'EXTENSION'), ('libcrypto.so.1.0.0', '/lib/x86_64-linux-gnu/libcrypto.so.1.0.0', 'BINARY'), ('libreadline.so.6', '/lib/x86_64-linux-gnu/libreadline.so.6', 'BINARY'), ('libtinfo.so.5', '/lib/x86_64-linux-gnu/libtinfo.so.5', 'BINARY'), ('libbz2.so.1.0', '/lib/x86_64-linux-gnu/libbz2.so.1.0', 'BINARY'), ('libwebpmux.so.1', '/usr/lib/x86_64-linux-gnu/libwebpmux.so.1', 'BINARY'), ('libwebp.so.5', '/usr/lib/x86_64-linux-gnu/libwebp.so.5', 'BINARY'), ('libexpat.so.1', '/lib/x86_64-linux-gnu/libexpat.so.1', 'BINARY'), ('libXss.so.1', '/usr/lib/x86_64-linux-gnu/libXss.so.1', 'BINARY'), ('libXau.so.6', '/usr/lib/x86_64-linux-gnu/libXau.so.6', 'BINARY'), ('libXrender.so.1', '/usr/lib/x86_64-linux-gnu/libXrender.so.1', 'BINARY'), ('libXft.so.2', '/usr/lib/x86_64-linux-gnu/libXft.so.2', 'BINARY'), ('libfreetype.so.6', '/usr/lib/x86_64-linux-gnu/libfreetype.so.6', 'BINARY'), ('libpng12.so.0', '/lib/x86_64-linux-gnu/libpng12.so.0', 'BINARY'), ('libtk8.6.so', '/usr/lib/x86_64-linux-gnu/libtk8.6.so', 'BINARY'), ('libXext.so.6', '/usr/lib/x86_64-linux-gnu/libXext.so.6', 'BINARY'), ('libfontconfig.so.1', '/usr/lib/x86_64-linux-gnu/libfontconfig.so.1', 'BINARY'), ('libX11.so.6', '/usr/lib/x86_64-linux-gnu/libX11.so.6', 'BINARY'), ('libtcl8.6.so', '/usr/lib/x86_64-linux-gnu/libtcl8.6.so', 'BINARY'), ('libXdmcp.so.6', '/usr/lib/x86_64-linux-gnu/libXdmcp.so.6', 'BINARY'), ('libBLT.2.5.so.8.6', '/usr/lib/libBLT.2.5.so.8.6', 'BINARY'), ('libtiff.so.5', '/usr/lib/x86_64-linux-gnu/libtiff.so.5', 'BINARY'), ('libjbig.so.0', '/usr/lib/x86_64-linux-gnu/libjbig.so.0', 'BINARY'), ('libjpeg.so.8', '/usr/lib/x86_64-linux-gnu/libjpeg.so.8', 'BINARY'), ('liblzma.so.5', '/lib/x86_64-linux-gnu/liblzma.so.5', 'BINARY'), ('libpython2.7.so.1.0', '/usr/lib/x86_64-linux-gnu/libpython2.7.so.1.0', 'BINARY')],
 [],
 [],
 [('tcl/opt0.4/pkgIndex.tcl', '/usr/share/tcltk/tcl8.6/opt0.4/pkgIndex.tcl', 'DATA'), ('tk/palette.tcl', '/usr/share/tcltk/tk8.6/palette.tcl', 'DATA'), ('tcl/msgs/de_at.msg', '/usr/share/tcltk/tcl8.6/msgs/de_at.msg', 'DATA'), ('tcl/encoding/iso8859-9.enc', '/usr/share/tcltk/tcl8.6/encoding/iso8859-9.enc', 'DATA'), ('tcl/encoding/cp1256.enc', '/usr/share/tcltk/tcl8.6/encoding/cp1256.enc', 'DATA'), ('tcl/encoding/macRomania.enc', '/usr/share/tcltk/tcl8.6/encoding/macRomania.enc', 'DATA'), ('tk/images/logo100.gif', '/usr/share/tcltk/tk8.6/images/logo100.gif', 'DATA'), ('tcl/encoding/gb12345.enc', '/usr/share/tcltk/tcl8.6/encoding/gb12345.enc', 'DATA'), ('tcl/msgs/fa_in.msg', '/usr/share/tcltk/tcl8.6/msgs/fa_in.msg', 'DATA'), ('tk/msgs/pt.msg', '/usr/share/tcltk/tk8.6/msgs/pt.msg', 'DATA'), ('tcl/package.tcl', '/usr/share/tcltk/tcl8.6/package.tcl', 'DATA'), ('tcl/encoding/gb2312-raw.enc', '/usr/share/tcltk/tcl8.6/encoding/gb2312-raw.enc', 'DATA'), ('tcl/msgs/sr.msg', '/usr/share/tcltk/tcl8.6/msgs/sr.msg', 'DATA'), ('tcl/msgs/kl.msg', '/usr/share/tcltk/tcl8.6/msgs/kl.msg', 'DATA'), ('tcl/msgs/et.msg', '/usr/share/tcltk/tcl8.6/msgs/et.msg', 'DATA'), ('tcl/msgs/en_au.msg', '/usr/share/tcltk/tcl8.6/msgs/en_au.msg', 'DATA'), ('tk/entry.tcl', '/usr/share/tcltk/tk8.6/entry.tcl', 'DATA'), ('tcl/msgs/hi.msg', '/usr/share/tcltk/tcl8.6/msgs/hi.msg', 'DATA'), ('tk/ttk/sizegrip.tcl', '/usr/share/tcltk/tk8.6/ttk/sizegrip.tcl', 'DATA'), ('tcl/msgs/da.msg', '/usr/share/tcltk/tcl8.6/msgs/da.msg', 'DATA'), ('tcl/msgs/en_za.msg', '/usr/share/tcltk/tcl8.6/msgs/en_za.msg', 'DATA'), ('tk/text.tcl', '/usr/share/tcltk/tk8.6/text.tcl', 'DATA'), ('tcl/encoding/cp1250.enc', '/usr/share/tcltk/tcl8.6/encoding/cp1250.enc', 'DATA'), ('tk/button.tcl', '/usr/share/tcltk/tk8.6/button.tcl', 'DATA'), ('tcl/encoding/macCyrillic.enc', '/usr/share/tcltk/tcl8.6/encoding/macCyrillic.enc', 'DATA'), ('tcl/tclAppInit.c', '/usr/share/tcltk/tcl8.6/tclAppInit.c', 'DATA'), ('tcl/msgs/fr_be.msg', '/usr/share/tcltk/tcl8.6/msgs/fr_be.msg', 'DATA'), ('tk/ttk/fonts.tcl', '/usr/share/tcltk/tk8.6/ttk/fonts.tcl', 'DATA'), ('tcl/msgs/es_gt.msg', '/usr/share/tcltk/tcl8.6/msgs/es_gt.msg', 'DATA'), ('tcl/msgs/en_ca.msg', '/usr/share/tcltk/tcl8.6/msgs/en_ca.msg', 'DATA'), ('tcl/history.tcl', '/usr/share/tcltk/tcl8.6/history.tcl', 'DATA'), ('tcl/encoding/ascii.enc', '/usr/share/tcltk/tcl8.6/encoding/ascii.enc', 'DATA'), ('tcl/msgs/ga.msg', '/usr/share/tcltk/tcl8.6/msgs/ga.msg', 'DATA'), ('tk/images/tai-ku.gif', '/usr/share/tcltk/tk8.6/images/tai-ku.gif', 'DATA'), ('tk/comdlg.tcl', '/usr/share/tcltk/tk8.6/comdlg.tcl', 'DATA'), ('tcl/msgs/zh_cn.msg', '/usr/share/tcltk/tcl8.6/msgs/zh_cn.msg', 'DATA'), ('tcl/msgs/kw.msg', '/usr/share/tcltk/tcl8.6/msgs/kw.msg', 'DATA'), ('tcl/encoding/iso8859-1.enc', '/usr/share/tcltk/tcl8.6/encoding/iso8859-1.enc', 'DATA'), ('tcl/encoding/cp861.enc', '/usr/share/tcltk/tcl8.6/encoding/cp861.enc', 'DATA'), ('tcl/tcl8/platform/shell-1.1.4.tm', '/usr/share/tcltk/tcl8.6/tcl8/platform/shell-1.1.4.tm', 'DATA'), ('tcl/encoding/cp1252.enc', '/usr/share/tcltk/tcl8.6/encoding/cp1252.enc', 'DATA'), ('tcl/tm.tcl', '/usr/share/tcltk/tcl8.6/tm.tcl', 'DATA'), ('tcl/msgs/ar.msg', '/usr/share/tcltk/tcl8.6/msgs/ar.msg', 'DATA'), ('tk/images/logo64.gif', '/usr/share/tcltk/tk8.6/images/logo64.gif', 'DATA'), ('tcl/msgs/es_cl.msg', '/usr/share/tcltk/tcl8.6/msgs/es_cl.msg', 'DATA'), ('tcl/msgs/gl.msg', '/usr/share/tcltk/tcl8.6/msgs/gl.msg', 'DATA'), ('tcl/encoding/koi8-u.enc', '/usr/share/tcltk/tcl8.6/encoding/koi8-u.enc', 'DATA'), ('tk/ttk/aquaTheme.tcl', '/usr/share/tcltk/tk8.6/ttk/aquaTheme.tcl', 'DATA'), ('tcl/msgs/te_in.msg', '/usr/share/tcltk/tcl8.6/msgs/te_in.msg', 'DATA'), ('tcl/clock.tcl', '/usr/share/tcltk/tcl8.6/clock.tcl', 'DATA'), ('tcl/encoding/iso8859-13.enc', '/usr/share/tcltk/tcl8.6/encoding/iso8859-13.enc', 'DATA'), ('tcl/msgs/fa.msg', '/usr/share/tcltk/tcl8.6/msgs/fa.msg', 'DATA'), ('tcl/msgs/ms.msg', '/usr/share/tcltk/tcl8.6/msgs/ms.msg', 'DATA'), ('tcl/msgs/es.msg', '/usr/share/tcltk/tcl8.6/msgs/es.msg', 'DATA'), ('lib/python2.7/config-x86_64-linux-gnu/Makefile', '/usr/lib/python2.7/config-x86_64-linux-gnu/Makefile', 'DATA'), ('tcl/msgs/en_zw.msg', '/usr/share/tcltk/tcl8.6/msgs/en_zw.msg', 'DATA'), ('tcl/encoding/euc-kr.enc', '/usr/share/tcltk/tcl8.6/encoding/euc-kr.enc', 'DATA'), ('tcl/msgs/ar_lb.msg', '/usr/share/tcltk/tcl8.6/msgs/ar_lb.msg', 'DATA'), ('tcl/encoding/cp855.enc', '/usr/share/tcltk/tcl8.6/encoding/cp855.enc', 'DATA'), ('tcl/msgs/fi.msg', '/usr/share/tcltk/tcl8.6/msgs/fi.msg', 'DATA'), ('tk/msgs/eo.msg', '/usr/share/tcltk/tk8.6/msgs/eo.msg', 'DATA'), ('tcl/http1.0/pkgIndex.tcl', '/usr/share/tcltk/tcl8.6/http1.0/pkgIndex.tcl', 'DATA'), ('tcl/encoding/macRoman.enc', '/usr/share/tcltk/tcl8.6/encoding/macRoman.enc', 'DATA'), ('tcl/encoding/iso2022-kr.enc', '/usr/share/tcltk/tcl8.6/encoding/iso2022-kr.enc', 'DATA'), ('tk/focus.tcl', '/usr/share/tcltk/tk8.6/focus.tcl', 'DATA'), ('tcl/msgs/te.msg', '/usr/share/tcltk/tcl8.6/msgs/te.msg', 'DATA'), ('tcl/msgs/es_do.msg', '/usr/share/tcltk/tcl8.6/msgs/es_do.msg', 'DATA'), ('tcl/encoding/cp936.enc', '/usr/share/tcltk/tcl8.6/encoding/cp936.enc', 'DATA'), ('tk/spinbox.tcl', '/usr/share/tcltk/tk8.6/spinbox.tcl', 'DATA'), ('tcl/encoding/iso8859-4.enc', '/usr/share/tcltk/tcl8.6/encoding/iso8859-4.enc', 'DATA'), ('tcl/msgs/en_hk.msg', '/usr/share/tcltk/tcl8.6/msgs/en_hk.msg', 'DATA'), ('tk/images/pwrdLogo.eps', '/usr/share/tcltk/tk8.6/images/pwrdLogo.eps', 'DATA'), ('tcl/encoding/cp1255.enc', '/usr/share/tcltk/tcl8.6/encoding/cp1255.enc', 'DATA'), ('tk/images/pwrdLogo150.gif', '/usr/share/tcltk/tk8.6/images/pwrdLogo150.gif', 'DATA'), ('tcl/encoding/iso2022-jp.enc', '/usr/share/tcltk/tcl8.6/encoding/iso2022-jp.enc', 'DATA'), ('tk/ttk/panedwindow.tcl', '/usr/share/tcltk/tk8.6/ttk/panedwindow.tcl', 'DATA'), ('tk/megawidget.tcl', '/usr/share/tcltk/tk8.6/megawidget.tcl', 'DATA'), ('tk/images/pwrdLogo100.gif', '/usr/share/tcltk/tk8.6/images/pwrdLogo100.gif', 'DATA'), ('tcl/encoding/iso8859-10.enc', '/usr/share/tcltk/tcl8.6/encoding/iso8859-10.enc', 'DATA'), ('tcl/msgs/ko_kr.msg', '/usr/share/tcltk/tcl8.6/msgs/ko_kr.msg', 'DATA'), ('tcl/msgs/es_uy.msg', '/usr/share/tcltk/tcl8.6/msgs/es_uy.msg', 'DATA'), ('tk/images/logo.eps', '/usr/share/tcltk/tk8.6/images/logo.eps', 'DATA'), ('tcl/msgs/el.msg', '/usr/share/tcltk/tcl8.6/msgs/el.msg', 'DATA'), ('tk/ttk/treeview.tcl', '/usr/share/tcltk/tk8.6/ttk/treeview.tcl', 'DATA'), ('tk/msgs/cs.msg', '/usr/share/tcltk/tk8.6/msgs/cs.msg', 'DATA'), ('tcl/encoding/cp950.enc', '/usr/share/tcltk/tcl8.6/encoding/cp950.enc', 'DATA'), ('tcl/encoding/cp852.enc', '/usr/share/tcltk/tcl8.6/encoding/cp852.enc', 'DATA'), ('tk/console.tcl', '/usr/share/tcltk/tk8.6/console.tcl', 'DATA'), ('tcl/encoding/cp737.enc', '/usr/share/tcltk/tcl8.6/encoding/cp737.enc', 'DATA'), ('tcl/msgs/it_ch.msg', '/usr/share/tcltk/tcl8.6/msgs/it_ch.msg', 'DATA'), ('tcl/msgs/ta.msg', '/usr/share/tcltk/tcl8.6/msgs/ta.msg', 'DATA'), ('tcl/msgs/zh_tw.msg', '/usr/share/tcltk/tcl8.6/msgs/zh_tw.msg', 'DATA'), ('tcl/encoding/cp866.enc', '/usr/share/tcltk/tcl8.6/encoding/cp866.enc', 'DATA'), ('tcl/msgs/es_pe.msg', '/usr/share/tcltk/tcl8.6/msgs/es_pe.msg', 'DATA'), ('tcl/msgs/sv.msg', '/usr/share/tcltk/tcl8.6/msgs/sv.msg', 'DATA'), ('tcl/msgs/ca.msg', '/usr/share/tcltk/tcl8.6/msgs/ca.msg', 'DATA'), ('tk/images/logoLarge.gif', '/usr/share/tcltk/tk8.6/images/logoLarge.gif', 'DATA'), ('tcl/msgs/es_sv.msg', '/usr/share/tcltk/tcl8.6/msgs/es_sv.msg', 'DATA'), ('tcl/msgs/nn.msg', '/usr/share/tcltk/tcl8.6/msgs/nn.msg', 'DATA'), ('tcl/msgs/bg.msg', '/usr/share/tcltk/tcl8.6/msgs/bg.msg', 'DATA'), ('tcl/encoding/cp865.enc', '/usr/share/tcltk/tcl8.6/encoding/cp865.enc', 'DATA'), ('tcl/encoding/cp949.enc', '/usr/share/tcltk/tcl8.6/encoding/cp949.enc', 'DATA'), ('tk/tk.tcl', '/usr/share/tcltk/tk8.6/tk.tcl', 'DATA'), ('tcl/msgs/kl_gl.msg', '/usr/share/tcltk/tcl8.6/msgs/kl_gl.msg', 'DATA'), ('tcl/msgs/es_ar.msg', '/usr/share/tcltk/tcl8.6/msgs/es_ar.msg', 'DATA'), ('tk/ttk/button.tcl', '/usr/share/tcltk/tk8.6/ttk/button.tcl', 'DATA'), ('tcl/msgs/sw.msg', '/usr/share/tcltk/tcl8.6/msgs/sw.msg', 'DATA'), ('tk/images/README', '/usr/share/tcltk/tk8.6/images/README', 'DATA'), ('tcl/msgs/fo.msg', '/usr/share/tcltk/tcl8.6/msgs/fo.msg', 'DATA'), ('tcl/encoding/gb1988.enc', '/usr/share/tcltk/tcl8.6/encoding/gb1988.enc', 'DATA'), ('tcl/msgs/ko.msg', '/usr/share/tcltk/tcl8.6/msgs/ko.msg', 'DATA'), ('tk/scale.tcl', '/usr/share/tcltk/tk8.6/scale.tcl', 'DATA'), ('tcl/opt0.4/optparse.tcl', '/usr/share/tcltk/tcl8.6/opt0.4/optparse.tcl', 'DATA'), ('tk/listbox.tcl', '/usr/share/tcltk/tk8.6/listbox.tcl', 'DATA'), ('tk/tclIndex', '/usr/share/tcltk/tk8.6/tclIndex', 'DATA'), ('tcl/msgs/pt.msg', '/usr/share/tcltk/tcl8.6/msgs/pt.msg', 'DATA'), ('tk/msgs/es.msg', '/usr/share/tcltk/tk8.6/msgs/es.msg', 'DATA'), ('tcl/msgs/fr.msg', '/usr/share/tcltk/tcl8.6/msgs/fr.msg', 'DATA'), ('tcl/msgs/ro.msg', '/usr/share/tcltk/tcl8.6/msgs/ro.msg', 'DATA'), ('tk/panedwindow.tcl', '/usr/share/tcltk/tk8.6/panedwindow.tcl', 'DATA'), ('tcl/encoding/dingbats.enc', '/usr/share/tcltk/tcl8.6/encoding/dingbats.enc', 'DATA'), ('tcl/encoding/iso8859-15.enc', '/usr/share/tcltk/tcl8.6/encoding/iso8859-15.enc', 'DATA'), ('tcl/encoding/cp1254.enc', '/usr/share/tcltk/tcl8.6/encoding/cp1254.enc', 'DATA'), ('tcl/msgs/mk.msg', '/usr/share/tcltk/tcl8.6/msgs/mk.msg', 'DATA'), ('tcl/msgs/es_co.msg', '/usr/share/tcltk/tcl8.6/msgs/es_co.msg', 'DATA'), ('tcl/msgs/af_za.msg', '/usr/share/tcltk/tcl8.6/msgs/af_za.msg', 'DATA'), ('tk/bgerror.tcl', '/usr/share/tcltk/tk8.6/bgerror.tcl', 'DATA'), ('tcl/msgs/eu_es.msg', '/usr/share/tcltk/tcl8.6/msgs/eu_es.msg', 'DATA'), ('tcl/encoding/koi8-r.enc', '/usr/share/tcltk/tcl8.6/encoding/koi8-r.enc', 'DATA'), ('tk/msgs/hu.msg', '/usr/share/tcltk/tk8.6/msgs/hu.msg', 'DATA'), ('tcl/word.tcl', '/usr/share/tcltk/tcl8.6/word.tcl', 'DATA'), ('tcl/msgs/nb.msg', '/usr/share/tcltk/tcl8.6/msgs/nb.msg', 'DATA'), ('tcl/msgs/en_in.msg', '/usr/share/tcltk/tcl8.6/msgs/en_in.msg', 'DATA'), ('tk/msgs/en_gb.msg', '/usr/share/tcltk/tk8.6/msgs/en_gb.msg', 'DATA'), ('tcl/encoding/iso8859-6.enc', '/usr/share/tcltk/tcl8.6/encoding/iso8859-6.enc', 'DATA'), ('tcl/http1.0/http.tcl', '/usr/share/tcltk/tcl8.6/http1.0/http.tcl', 'DATA'), ('tcl/encoding/jis0212.enc', '/usr/share/tcltk/tcl8.6/encoding/jis0212.enc', 'DATA'), ('tcl/encoding/cp437.enc', '/usr/share/tcltk/tcl8.6/encoding/cp437.enc', 'DATA'), ('tcl/encoding/macUkraine.enc', '/usr/share/tcltk/tcl8.6/encoding/macUkraine.enc', 'DATA'), ('tcl/encoding/cp1258.enc', '/usr/share/tcltk/tcl8.6/encoding/cp1258.enc', 'DATA'), ('tcl/msgs/is.msg', '/usr/share/tcltk/tcl8.6/msgs/is.msg', 'DATA'), ('tk/dialog.tcl', '/usr/share/tcltk/tk8.6/dialog.tcl', 'DATA'), ('tcl/msgs/mr_in.msg', '/usr/share/tcltk/tcl8.6/msgs/mr_in.msg', 'DATA'), ('tk/ttk/xpTheme.tcl', '/usr/share/tcltk/tk8.6/ttk/xpTheme.tcl', 'DATA'), ('tk/ttk/scrollbar.tcl', '/usr/share/tcltk/tk8.6/ttk/scrollbar.tcl', 'DATA'), ('tcl/msgs/es_py.msg', '/usr/share/tcltk/tcl8.6/msgs/es_py.msg', 'DATA'), ('tk/ttk/defaults.tcl', '/usr/share/tcltk/tk8.6/ttk/defaults.tcl', 'DATA'), ('tcl/msgs/en_sg.msg', '/usr/share/tcltk/tcl8.6/msgs/en_sg.msg', 'DATA'), ('tcl/msgs/id.msg', '/usr/share/tcltk/tcl8.6/msgs/id.msg', 'DATA'), ('tcl/encoding/cp850.enc', '/usr/share/tcltk/tcl8.6/encoding/cp850.enc', 'DATA'), ('tk/images/lamp.svg', '/usr/share/tcltk/tk8.6/images/lamp.svg', 'DATA'), ('tcl/msgs/hu.msg', '/usr/share/tcltk/tcl8.6/msgs/hu.msg', 'DATA'), ('tcl/encoding/macGreek.enc', '/usr/share/tcltk/tcl8.6/encoding/macGreek.enc', 'DATA'), ('tcl/encoding/euc-jp.enc', '/usr/share/tcltk/tcl8.6/encoding/euc-jp.enc', 'DATA'), ('tk/images/pwrdLogo75.gif', '/usr/share/tcltk/tk8.6/images/pwrdLogo75.gif', 'DATA'), ('tk/msgbox.tcl', '/usr/share/tcltk/tk8.6/msgbox.tcl', 'DATA'), ('tk/images/pwrdLogo200.gif', '/usr/share/tcltk/tk8.6/images/pwrdLogo200.gif', 'DATA'), ('tcl/encoding/euc-cn.enc', '/usr/share/tcltk/tcl8.6/encoding/euc-cn.enc', 'DATA'), ('tcl/msgs/es_bo.msg', '/usr/share/tcltk/tcl8.6/msgs/es_bo.msg', 'DATA'), ('tk/iconlist.tcl', '/usr/share/tcltk/tk8.6/iconlist.tcl', 'DATA'), ('tcl/tcl8/tcltest-2.3.6.tm', '/usr/share/tcltk/tcl8.6/tcl8/tcltest-2.3.6.tm', 'DATA'), ('tk/xmfbox.tcl', '/usr/share/tcltk/tk8.6/xmfbox.tcl', 'DATA'), ('tcl/msgs/en_ie.msg', '/usr/share/tcltk/tcl8.6/msgs/en_ie.msg', 'DATA'), ('tk/ttk/vistaTheme.tcl', '/usr/share/tcltk/tk8.6/ttk/vistaTheme.tcl', 'DATA'), ('tcl/msgs/nl.msg', '/usr/share/tcltk/tcl8.6/msgs/nl.msg', 'DATA'), ('tcl/tcl8/http-2.8.7.tm', '/usr/share/tcltk/tcl8.6/tcl8/http-2.8.7.tm', 'DATA'), ('tk/msgs/pl.msg', '/usr/share/tcltk/tk8.6/msgs/pl.msg', 'DATA'), ('tcl/encoding/iso8859-5.enc', '/usr/share/tcltk/tcl8.6/encoding/iso8859-5.enc', 'DATA'), ('tcl/tclIndex', '/usr/share/tcltk/tcl8.6/tclIndex', 'DATA'), ('tk/ttk/clamTheme.tcl', '/usr/share/tcltk/tk8.6/ttk/clamTheme.tcl', 'DATA'), ('tk/msgs/de.msg', '/usr/share/tcltk/tk8.6/msgs/de.msg', 'DATA'), ('tk/ttk/spinbox.tcl', '/usr/share/tcltk/tk8.6/ttk/spinbox.tcl', 'DATA'), ('tcl/safe.tcl', '/usr/share/tcltk/tcl8.6/safe.tcl', 'DATA'), ('tcl/msgs/en_gb.msg', '/usr/share/tcltk/tcl8.6/msgs/en_gb.msg', 'DATA'), ('tk/unsupported.tcl', '/usr/share/tcltk/tk8.6/unsupported.tcl', 'DATA'), ('tcl/tcl8/msgcat-1.5.2.tm', '/usr/share/tcltk/tcl8.6/tcl8/msgcat-1.5.2.tm', 'DATA'), ('tcl/encoding/jis0201.enc', '/usr/share/tcltk/tcl8.6/encoding/jis0201.enc', 'DATA'), ('tcl/msgs/gv_gb.msg', '/usr/share/tcltk/tcl8.6/msgs/gv_gb.msg', 'DATA'), ('tk/ttk/combobox.tcl', '/usr/share/tcltk/tk8.6/ttk/combobox.tcl', 'DATA'), ('tk/msgs/it.msg', '/usr/share/tcltk/tk8.6/msgs/it.msg', 'DATA'), ('tk/ttk/entry.tcl', '/usr/share/tcltk/tk8.6/ttk/entry.tcl', 'DATA'), ('tk/images/pwrdLogo175.gif', '/usr/share/tcltk/tk8.6/images/pwrdLogo175.gif', 'DATA'), ('tcl/encoding/macJapan.enc', '/usr/share/tcltk/tcl8.6/encoding/macJapan.enc', 'DATA'), ('tcl/encoding/symbol.enc', '/usr/share/tcltk/tcl8.6/encoding/symbol.enc', 'DATA'), ('tcl/encoding/cp1251.enc', '/usr/share/tcltk/tcl8.6/encoding/cp1251.enc', 'DATA'), ('tcl/encoding/macDingbats.enc', '/usr/share/tcltk/tcl8.6/encoding/macDingbats.enc', 'DATA'), ('tcl/msgs/pl.msg', '/usr/share/tcltk/tcl8.6/msgs/pl.msg', 'DATA'), ('tcl/encoding/ksc5601.enc', '/usr/share/tcltk/tcl8.6/encoding/ksc5601.enc', 'DATA'), ('tcl/encoding/cp1253.enc', '/usr/share/tcltk/tcl8.6/encoding/cp1253.enc', 'DATA'), ('tcl/msgs/es_pa.msg', '/usr/share/tcltk/tcl8.6/msgs/es_pa.msg', 'DATA'), ('tcl/msgs/de.msg', '/usr/share/tcltk/tcl8.6/msgs/de.msg', 'DATA'), ('tk/icons.tcl', '/usr/share/tcltk/tk8.6/icons.tcl', 'DATA'), ('tcl/encoding/cp869.enc', '/usr/share/tcltk/tcl8.6/encoding/cp869.enc', 'DATA'), ('tcl/encoding/cp860.enc', '/usr/share/tcltk/tcl8.6/encoding/cp860.enc', 'DATA'), ('tcl/msgs/ar_sy.msg', '/usr/share/tcltk/tcl8.6/msgs/ar_sy.msg', 'DATA'), ('tcl/msgs/en_nz.msg', '/usr/share/tcltk/tcl8.6/msgs/en_nz.msg', 'DATA'), ('tk/msgs/da.msg', '/usr/share/tcltk/tk8.6/msgs/da.msg', 'DATA'), ('tk/ttk/ttk.tcl', '/usr/share/tcltk/tk8.6/ttk/ttk.tcl', 'DATA'), ('tcl/msgs/bn.msg', '/usr/share/tcltk/tcl8.6/msgs/bn.msg', 'DATA'), ('tcl/encoding/macThai.enc', '/usr/share/tcltk/tcl8.6/encoding/macThai.enc', 'DATA'), ('tk/ttk/utils.tcl', '/usr/share/tcltk/tk8.6/ttk/utils.tcl', 'DATA'), ('tcl/tcl8/platform-1.0.12.tm', '/usr/share/tcltk/tcl8.6/tcl8/platform-1.0.12.tm', 'DATA'), ('tcl/msgs/zh_hk.msg', '/usr/share/tcltk/tcl8.6/msgs/zh_hk.msg', 'DATA'), ('tcl/msgs/ru.msg', '/usr/share/tcltk/tcl8.6/msgs/ru.msg', 'DATA'), ('tcl/msgs/sq.msg', '/usr/share/tcltk/tcl8.6/msgs/sq.msg', 'DATA'), ('tcl/encoding/cp775.enc', '/usr/share/tcltk/tcl8.6/encoding/cp775.enc', 'DATA'), ('tcl/encoding/macCentEuro.enc', '/usr/share/tcltk/tcl8.6/encoding/macCentEuro.enc', 'DATA'), ('tcl/msgs/en_ph.msg', '/usr/share/tcltk/tcl8.6/msgs/en_ph.msg', 'DATA'), ('tcl/msgs/fo_fo.msg', '/usr/share/tcltk/tcl8.6/msgs/fo_fo.msg', 'DATA'), ('tk/ttk/cursors.tcl', '/usr/share/tcltk/tk8.6/ttk/cursors.tcl', 'DATA'), ('tk/tearoff.tcl', '/usr/share/tcltk/tk8.6/tearoff.tcl', 'DATA'), ('tk/msgs/fr.msg', '/usr/share/tcltk/tk8.6/msgs/fr.msg', 'DATA'), ('tcl/msgs/es_ec.msg', '/usr/share/tcltk/tcl8.6/msgs/es_ec.msg', 'DATA'), ('tcl/encoding/cp932.enc', '/usr/share/tcltk/tcl8.6/encoding/cp932.enc', 'DATA'), ('tk/mkpsenc.tcl', '/usr/share/tcltk/tk8.6/mkpsenc.tcl', 'DATA'), ('tk/optMenu.tcl', '/usr/share/tcltk/tk8.6/optMenu.tcl', 'DATA'), ('tcl/msgs/he.msg', '/usr/share/tcltk/tcl8.6/msgs/he.msg', 'DATA'), ('tcl/encoding/cp857.enc', '/usr/share/tcltk/tcl8.6/encoding/cp857.enc', 'DATA'), ('tk/tkfbox.tcl', '/usr/share/tcltk/tk8.6/tkfbox.tcl', 'DATA'), ('tk/clrpick.tcl', '/usr/share/tcltk/tk8.6/clrpick.tcl', 'DATA'), ('tcl/msgs/hi_in.msg', '/usr/share/tcltk/tcl8.6/msgs/hi_in.msg', 'DATA'), ('tcl/msgs/bn_in.msg', '/usr/share/tcltk/tcl8.6/msgs/bn_in.msg', 'DATA'), ('tcl/msgs/af.msg', '/usr/share/tcltk/tcl8.6/msgs/af.msg', 'DATA'), ('tk/ttk/scale.tcl', '/usr/share/tcltk/tk8.6/ttk/scale.tcl', 'DATA'), ('tcl/msgs/ta_in.msg', '/usr/share/tcltk/tcl8.6/msgs/ta_in.msg', 'DATA'), ('tcl/msgs/es_mx.msg', '/usr/share/tcltk/tcl8.6/msgs/es_mx.msg', 'DATA'), ('tcl/encoding/macIceland.enc', '/usr/share/tcltk/tcl8.6/encoding/macIceland.enc', 'DATA'), ('tcl/msgs/lv.msg', '/usr/share/tcltk/tcl8.6/msgs/lv.msg', 'DATA'), ('tcl/encoding/shiftjis.enc', '/usr/share/tcltk/tcl8.6/encoding/shiftjis.enc', 'DATA'), ('tk/ttk/classicTheme.tcl', '/usr/share/tcltk/tk8.6/ttk/classicTheme.tcl', 'DATA'), ('tk/scrlbar.tcl', '/usr/share/tcltk/tk8.6/scrlbar.tcl', 'DATA'), ('tcl/msgs/it.msg', '/usr/share/tcltk/tcl8.6/msgs/it.msg', 'DATA'), ('tcl/msgs/sl.msg', '/usr/share/tcltk/tcl8.6/msgs/sl.msg', 'DATA'), ('tcl/msgs/ms_my.msg', '/usr/share/tcltk/tcl8.6/msgs/ms_my.msg', 'DATA'), ('tcl/msgs/ru_ua.msg', '/usr/share/tcltk/tcl8.6/msgs/ru_ua.msg', 'DATA'), ('tk/tkAppInit.c', '/usr/share/tcltk/tk8.6/tkAppInit.c', 'DATA'), ('tcl/msgs/sh.msg', '/usr/share/tcltk/tcl8.6/msgs/sh.msg', 'DATA'), ('tcl/msgs/fr_ch.msg', '/usr/share/tcltk/tcl8.6/msgs/fr_ch.msg', 'DATA'), ('tcl/encoding/gb2312.enc', '/usr/share/tcltk/tcl8.6/encoding/gb2312.enc', 'DATA'), ('tcl/msgs/eu.msg', '/usr/share/tcltk/tcl8.6/msgs/eu.msg', 'DATA'), ('tcl/msgs/es_ni.msg', '/usr/share/tcltk/tcl8.6/msgs/es_ni.msg', 'DATA'), ('tcl/msgs/tr.msg', '/usr/share/tcltk/tcl8.6/msgs/tr.msg', 'DATA'), ('tcl/encoding/macTurkish.enc', '/usr/share/tcltk/tcl8.6/encoding/macTurkish.enc', 'DATA'), ('tk/menu.tcl', '/usr/share/tcltk/tk8.6/menu.tcl', 'DATA'), ('tk/msgs/nl.msg', '/usr/share/tcltk/tk8.6/msgs/nl.msg', 'DATA'), ('tcl/encoding/iso8859-14.enc', '/usr/share/tcltk/tcl8.6/encoding/iso8859-14.enc', 'DATA'), ('tcl/encoding/cp1257.enc', '/usr/share/tcltk/tcl8.6/encoding/cp1257.enc', 'DATA'), ('tcl/msgs/eo.msg', '/usr/share/tcltk/tcl8.6/msgs/eo.msg', 'DATA'), ('tcl/encoding/cp864.enc', '/usr/share/tcltk/tcl8.6/encoding/cp864.enc', 'DATA'), ('tk/msgs/sv.msg', '/usr/share/tcltk/tk8.6/msgs/sv.msg', 'DATA'), ('tcl/encoding/jis0208.enc', '/usr/share/tcltk/tcl8.6/encoding/jis0208.enc', 'DATA'), ('tcl/msgs/es_ve.msg', '/usr/share/tcltk/tcl8.6/msgs/es_ve.msg', 'DATA'), ('tcl/msgs/kok.msg', '/usr/share/tcltk/tcl8.6/msgs/kok.msg', 'DATA'), ('include/python2.7/pyconfig.h', '/usr/include/python2.7/pyconfig.h', 'DATA'), ('tcl/encoding/iso8859-3.enc', '/usr/share/tcltk/tcl8.6/encoding/iso8859-3.enc', 'DATA'), ('tk/images/logoMed.gif', '/usr/share/tcltk/tk8.6/images/logoMed.gif', 'DATA'), ('tcl/msgs/mr.msg', '/usr/share/tcltk/tcl8.6/msgs/mr.msg', 'DATA'), ('tcl/init.tcl', '/usr/share/tcltk/tcl8.6/init.tcl', 'DATA'), ('tcl/msgs/lt.msg', '/usr/share/tcltk/tcl8.6/msgs/lt.msg', 'DATA'), ('tk/images/lamp.png', '/usr/share/tcltk/tk8.6/images/lamp.png', 'DATA'), ('tcl/msgs/ar_in.msg', '/usr/share/tcltk/tcl8.6/msgs/ar_in.msg', 'DATA'), ('tk/ttk/altTheme.tcl', '/usr/share/tcltk/tk8.6/ttk/altTheme.tcl', 'DATA'), ('tcl/auto.tcl', '/usr/share/tcltk/tcl8.6/auto.tcl', 'DATA'), ('tcl/msgs/vi.msg', '/usr/share/tcltk/tcl8.6/msgs/vi.msg', 'DATA'), ('tcl/encoding/iso8859-7.enc', '/usr/share/tcltk/tcl8.6/encoding/iso8859-7.enc', 'DATA'), ('tcl/msgs/hr.msg', '/usr/share/tcltk/tcl8.6/msgs/hr.msg', 'DATA'), ('tcl/parray.tcl', '/usr/share/tcltk/tcl8.6/parray.tcl', 'DATA'), ('tcl/msgs/es_hn.msg', '/usr/share/tcltk/tcl8.6/msgs/es_hn.msg', 'DATA'), ('tk/ttk/notebook.tcl', '/usr/share/tcltk/tk8.6/ttk/notebook.tcl', 'DATA'), ('tcl/encoding/tis-620.enc', '/usr/share/tcltk/tcl8.6/encoding/tis-620.enc', 'DATA'), ('tcl/msgs/es_cr.msg', '/usr/share/tcltk/tcl8.6/msgs/es_cr.msg', 'DATA'), ('tk/msgs/el.msg', '/usr/share/tcltk/tk8.6/msgs/el.msg', 'DATA'), ('tcl/encoding/iso8859-2.enc', '/usr/share/tcltk/tcl8.6/encoding/iso8859-2.enc', 'DATA'), ('tcl/msgs/en_bw.msg', '/usr/share/tcltk/tcl8.6/msgs/en_bw.msg', 'DATA'), ('tcl/encoding/macCroatian.enc', '/usr/share/tcltk/tcl8.6/encoding/macCroatian.enc', 'DATA'), ('tcl/msgs/ga_ie.msg', '/usr/share/tcltk/tcl8.6/msgs/ga_ie.msg', 'DATA'), ('tk/ttk/menubutton.tcl', '/usr/share/tcltk/tk8.6/ttk/menubutton.tcl', 'DATA'), ('tcl/msgs/cs.msg', '/usr/share/tcltk/tcl8.6/msgs/cs.msg', 'DATA'), ('tcl/msgs/kok_in.msg', '/usr/share/tcltk/tcl8.6/msgs/kok_in.msg', 'DATA'), ('tk/fontchooser.tcl', '/usr/share/tcltk/tk8.6/fontchooser.tcl', 'DATA'), ('tcl/encoding/big5.enc', '/usr/share/tcltk/tcl8.6/encoding/big5.enc', 'DATA'), ('tcl/encoding/cp862.enc', '/usr/share/tcltk/tcl8.6/encoding/cp862.enc', 'DATA'), ('tcl/encoding/cp863.enc', '/usr/share/tcltk/tcl8.6/encoding/cp863.enc', 'DATA'), ('tcl/msgs/mt.msg', '/usr/share/tcltk/tcl8.6/msgs/mt.msg', 'DATA'), ('tcl/msgs/kw_gb.msg', '/usr/share/tcltk/tcl8.6/msgs/kw_gb.msg', 'DATA'), ('tcl/msgs/gl_es.msg', '/usr/share/tcltk/tcl8.6/msgs/gl_es.msg', 'DATA'), ('tcl/msgs/id_id.msg', '/usr/share/tcltk/tcl8.6/msgs/id_id.msg', 'DATA'), ('tcl/msgs/de_be.msg', '/usr/share/tcltk/tcl8.6/msgs/de_be.msg', 'DATA'), ('tcl/msgs/zh_sg.msg', '/usr/share/tcltk/tcl8.6/msgs/zh_sg.msg', 'DATA'), ('tcl/encoding/iso8859-8.enc', '/usr/share/tcltk/tcl8.6/encoding/iso8859-8.enc', 'DATA'), ('tk/choosedir.tcl', '/usr/share/tcltk/tk8.6/choosedir.tcl', 'DATA'), ('tk/msgs/en.msg', '/usr/share/tcltk/tk8.6/msgs/en.msg', 'DATA'), ('tcl/msgs/es_pr.msg', '/usr/share/tcltk/tcl8.6/msgs/es_pr.msg', 'DATA'), ('tcl/encoding/iso2022.enc', '/usr/share/tcltk/tcl8.6/encoding/iso2022.enc', 'DATA'), ('tk/ttk/winTheme.tcl', '/usr/share/tcltk/tk8.6/ttk/winTheme.tcl', 'DATA'), ('tk/obsolete.tcl', '/usr/share/tcltk/tk8.6/obsolete.tcl', 'DATA'), ('tcl/msgs/ar_jo.msg', '/usr/share/tcltk/tcl8.6/msgs/ar_jo.msg', 'DATA'), ('tk/msgs/ru.msg', '/usr/share/tcltk/tk8.6/msgs/ru.msg', 'DATA'), ('tcl/msgs/sk.msg', '/usr/share/tcltk/tcl8.6/msgs/sk.msg', 'DATA'), ('tcl/msgs/en_be.msg', '/usr/share/tcltk/tcl8.6/msgs/en_be.msg', 'DATA'), ('tcl/msgs/fr_ca.msg', '/usr/share/tcltk/tcl8.6/msgs/fr_ca.msg', 'DATA'), ('tcl/msgs/nl_be.msg', '/usr/share/tcltk/tcl8.6/msgs/nl_be.msg', 'DATA'), ('tcl/msgs/ja.msg', '/usr/share/tcltk/tcl8.6/msgs/ja.msg', 'DATA'), ('tcl/encoding/cp874.enc', '/usr/share/tcltk/tcl8.6/encoding/cp874.enc', 'DATA'), ('tcl/msgs/pt_br.msg', '/usr/share/tcltk/tcl8.6/msgs/pt_br.msg', 'DATA'), ('tcl/msgs/zh.msg', '/usr/share/tcltk/tcl8.6/msgs/zh.msg', 'DATA'), ('tcl/msgs/gv.msg', '/usr/share/tcltk/tcl8.6/msgs/gv.msg', 'DATA'), ('tcl/msgs/be.msg', '/usr/share/tcltk/tcl8.6/msgs/be.msg', 'DATA'), ('tcl/msgs/uk.msg', '/usr/share/tcltk/tcl8.6/msgs/uk.msg', 'DATA'), ('tcl/encoding/iso8859-16.enc', '/usr/share/tcltk/tcl8.6/encoding/iso8859-16.enc', 'DATA'), ('tk/safetk.tcl', '/usr/share/tcltk/tk8.6/safetk.tcl', 'DATA'), ('tk/ttk/progress.tcl', '/usr/share/tcltk/tk8.6/ttk/progress.tcl', 'DATA'), ('tcl/encoding/ebcdic.enc', '/usr/share/tcltk/tcl8.6/encoding/ebcdic.enc', 'DATA'), ('tcl/msgs/th.msg', '/usr/share/tcltk/tcl8.6/msgs/th.msg', 'DATA'), ('tcl/msgs/fa_ir.msg', '/usr/share/tcltk/tcl8.6/msgs/fa_ir.msg', 'DATA')],
 [])
