('/mnt/d54b64d6-3817-4c65-ab73-05074b08b2fa/IIST/Sem5/Projects/DSP/build/stegan/stegan',
 True,
 False,
 True,
 None,
 None,
 False,
 False,
 None,
 True,
 'stegan.pkg',
 [('out00-PYZ.pyz', '/mnt/d54b64d6-3817-4c65-ab73-05074b08b2fa/IIST/Sem5/Projects/DSP/build/stegan/out00-PYZ.pyz', 'PYZ'), ('struct', '/usr/lib/python2.7/struct.pyc', 'PYMODULE'), ('pyimod01_os_path', '/home/anandsanto/.local/lib/python2.7/site-packages/PyInstaller/loader/pyimod01_os_path.pyc', 'PYMODULE'), ('pyimod02_archive', '/home/anandsanto/.local/lib/python2.7/site-packages/PyInstaller/loader/pyimod02_archive.pyc', 'PYMODULE'), ('pyimod03_importers', '/home/anandsanto/.local/lib/python2.7/site-packages/PyInstaller/loader/pyimod03_importers.pyc', 'PYMODULE'), ('pyiboot01_bootstrap', '/home/anandsanto/.local/lib/python2.7/site-packages/PyInstaller/loader/pyiboot01_bootstrap.py', 'PYSOURCE'), ('pyi_rth__tkinter', '/home/anandsanto/.local/lib/python2.7/site-packages/PyInstaller/loader/rthooks/pyi_rth__tkinter.py', 'PYSOURCE'), ('stegan', '/mnt/d54b64d6-3817-4c65-ab73-05074b08b2fa/IIST/Sem5/Projects/DSP/stegan.py', 'PYSOURCE')],
 [],
 None,
 False,
 1446304085,
 [('run', '/home/anandsanto/.local/lib/python2.7/site-packages/PyInstaller/bootloader/Linux-64bit/run', 'EXECUTABLE')])
