Release 13.2 Xflow O.61xd (nt)
Copyright (c) 1995-2011 Xilinx, Inc.  All rights reserved.
xflow.exe -p xc5vlx110t-1ff1136 -implement balanced_jtag.opt -config
bitgen_jtag.opt jtagcosim_top  
.... Copying flowfile c:/xilinx/13.2/ise_ds/ise/xilinx/data/fpga.flw into
working directory C:\Documents and Settings\TEMP.IIST-BC302C6023.002\My
Documents\Stegan\netlist\xflow 

Using Flow File: C:\Documents and Settings\TEMP.IIST-BC302C6023.002\My
Documents\Stegan\netlist\xflow/fpga.flw 
Using Option File(s): 
 C:\Documents and Settings\TEMP.IIST-BC302C6023.002\My
Documents\Stegan\netlist\xflow/balanced_jtag.opt 
 C:\Documents and Settings\TEMP.IIST-BC302C6023.002\My
Documents\Stegan\netlist\xflow/bitgen_jtag.opt 

Creating Script File ... 

#----------------------------------------------#
# Starting program ngdbuild
# ngdbuild -p xc5vlx110t-1ff1136 -nt timestamp -intstyle xflow "C:\Documents and
Settings\TEMP.IIST-BC302C6023.002\My
Documents\Stegan\netlist\xflow/jtagcosim_top.ngc" jtagcosim_top.ngd 
#----------------------------------------------#

Command Line: c:\xilinx\13.2\ise_ds\ise\bin\nt\unwrapped\ngdbuild.exe -p
xc5vlx110t-1ff1136 -nt timestamp -intstyle xflow C:\Documents and
Settings\TEMP.IIST-BC302C6023.002\My
Documents\Stegan\netlist\xflow/jtagcosim_top.ngc jtagcosim_top.ngd

Reading NGO file "C:/Documents and Settings/TEMP.IIST-BC302C6023.002/My
Documents/Stegan/netlist/xflow/jtagcosim_top.ngc" ...
Loading design module "C:/Documents and Settings/TEMP.IIST-BC302C6023.002/My
Documents/Stegan/netlist/xflow/jtagcosim_iface_virtex5.ngc"...
Loading design module "C:/Documents and Settings/TEMP.IIST-BC302C6023.002/My
Documents/Stegan/netlist/xflow/stegan_cw.ngc"...
Loading design module "C:/Documents and Settings/TEMP.IIST-BC302C6023.002/My
Documents/Stegan/netlist/xflow/xlpersistentdff.ngc"...
Loading design module "C:/Documents and Settings/TEMP.IIST-BC302C6023.002/My
Documents/Stegan/netlist/xflow/cntr_11_0_786b4827bc4f1cc0.ngc"...
Loading design module "C:/Documents and Settings/TEMP.IIST-BC302C6023.002/My
Documents/Stegan/netlist/xflow/cntr_11_0_42641be7ce0be85d.ngc"...
Loading design module "C:/Documents and Settings/TEMP.IIST-BC302C6023.002/My
Documents/Stegan/netlist/xflow/bmg_62_d114327b534f935a.ngc"...
Loading design module "C:/Documents and Settings/TEMP.IIST-BC302C6023.002/My
Documents/Stegan/netlist/xflow/cntr_11_0_6b0ce97ab3460d51.ngc"...
Loading design module "C:/Documents and Settings/TEMP.IIST-BC302C6023.002/My
Documents/Stegan/netlist/xflow/addsb_11_0_b3078c1761cd5ccf.ngc"...
Gathering constraint information from source properties...
Done.

Annotating constraints to design from ucf file "jtagcosim_top.ucf" ...
Resolving constraint associations...
Checking Constraint Associations...
Done...

Checking expanded design ...
WARNING:NgdBuild:443 - SFF primitive
   'sysgen_hwcosim_iface/sysgen_dut/default_clock_driver_x0/xlclockdriver_1/clr_
   reg/latency_gt_0.fd_array[1].reg_comp/fd_prim_array[0].bit_is_0.fdre_comp'
   has unconnected output pin

Partition Implementation Status
-------------------------------

  No Partitions were found in this design.

-------------------------------

NGDBUILD Design Results Summary:
  Number of errors:     0
  Number of warnings:   1

Writing NGD file "jtagcosim_top.ngd" ...
Total REAL time to NGDBUILD completion:  4 sec
Total CPU time to NGDBUILD completion:   3 sec

Writing NGDBUILD log file "jtagcosim_top.bld"...

NGDBUILD done.



#----------------------------------------------#
# Starting program map
# map -o jtagcosim_top_map.ncd -intstyle xflow -timing -pr b -ol high
jtagcosim_top.ngd jtagcosim_top.pcf 
#----------------------------------------------#
Using target part "5vlx110tff1136-1".
vvvvvvvvvvvvvvvvvvvvvvvvvvvvvvvvvvvvvvvvvvvvvvvvvvvvvvvvvvvvvvvvvvvvvv
INFO:Security:50 - The XILINXD_LICENSE_FILE environment variable is set to
'2100@172.20.0.201'.
INFO:Security:52 - The LM_LICENSE_FILE environment variable is set to
'2100@172.20.0.201'.
INFO:Security:56 - Part 'xc5vlx110t' is not a WebPack part.
WARNING:Security:43 - No license file was found in the standard Xilinx license
directory.
WARNING:Security:44 - No license file was found.
       Please run the Xilinx License Configuration Manager
       (xlcm or "Manage Xilinx Licenses")
       to assist in obtaining a license.
WARNING:Security:42 - Your software subscription period has lapsed. Your current
version of Xilinx tools will continue to function, but you no longer qualify for
Xilinx software updates or new releases.
----------------------------------------------------------------------
Mapping design into LUTs...
WARNING:Pack:2874 - Trimming timing constraints from pin
   sysgen_hwcosim_iface/sysgen_dut/stegan_x0/textout1_a34404d5d8/rom/comp0.core_
   instance0/U0/xst_blk_mem_generator/gnativebmg.native_blk_mem_gen/valid.cstr/r
   amloop[0].ram.r/v5_init.ram/SP.SINGLE_PRIM36.SP
   of frag REGCLKAU connected to power/ground net
   sysgen_hwcosim_iface/sysgen_dut/stegan_x0/textout1_a34404d5d8/rom/comp0.core_
   instance0/U0/xst_blk_mem_generator/gnativebmg.native_blk_mem_gen/valid.cstr/r
   amloop[0].ram.r/v5_init.ram/SP.SINGLE_PRIM36.SP_REGCLKAU_tiesig
WARNING:Pack:2874 - Trimming timing constraints from pin
   sysgen_hwcosim_iface/sysgen_dut/stegan_x0/textout1_a34404d5d8/rom/comp0.core_
   instance0/U0/xst_blk_mem_generator/gnativebmg.native_blk_mem_gen/valid.cstr/r
   amloop[0].ram.r/v5_init.ram/SP.SINGLE_PRIM36.SP
   of frag REGCLKAL connected to power/ground net
   sysgen_hwcosim_iface/sysgen_dut/stegan_x0/textout1_a34404d5d8/rom/comp0.core_
   instance0/U0/xst_blk_mem_generator/gnativebmg.native_blk_mem_gen/valid.cstr/r
   amloop[0].ram.r/v5_init.ram/SP.SINGLE_PRIM36.SP_REGCLKAL_tiesig
WARNING:Pack:2874 - Trimming timing constraints from pin
   sysgen_hwcosim_iface/sysgen_dut/stegan_x0/textout1_a34404d5d8/rom/comp0.core_
   instance0/U0/xst_blk_mem_generator/gnativebmg.native_blk_mem_gen/valid.cstr/r
   amloop[1].ram.r/v5_init.ram/SP.SINGLE_PRIM36.SP
   of frag REGCLKAU connected to power/ground net
   sysgen_hwcosim_iface/sysgen_dut/stegan_x0/textout1_a34404d5d8/rom/comp0.core_
   instance0/U0/xst_blk_mem_generator/gnativebmg.native_blk_mem_gen/valid.cstr/r
   amloop[1].ram.r/v5_init.ram/SP.SINGLE_PRIM36.SP_REGCLKAU_tiesig
WARNING:Pack:2874 - Trimming timing constraints from pin
   sysgen_hwcosim_iface/sysgen_dut/stegan_x0/textout1_a34404d5d8/rom/comp0.core_
   instance0/U0/xst_blk_mem_generator/gnativebmg.native_blk_mem_gen/valid.cstr/r
   amloop[1].ram.r/v5_init.ram/SP.SINGLE_PRIM36.SP
   of frag REGCLKAL connected to power/ground net
   sysgen_hwcosim_iface/sysgen_dut/stegan_x0/textout1_a34404d5d8/rom/comp0.core_
   instance0/U0/xst_blk_mem_generator/gnativebmg.native_blk_mem_gen/valid.cstr/r
   amloop[1].ram.r/v5_init.ram/SP.SINGLE_PRIM36.SP_REGCLKAL_tiesig
WARNING:Pack:2874 - Trimming timing constraints from pin
   sysgen_hwcosim_iface/sysgen_dut/stegan_x0/textout1_a34404d5d8/rom/comp0.core_
   instance0/U0/xst_blk_mem_generator/gnativebmg.native_blk_mem_gen/valid.cstr/r
   amloop[2].ram.r/v5_init.ram/SP.SINGLE_PRIM36.SP
   of frag REGCLKAU connected to power/ground net
   sysgen_hwcosim_iface/sysgen_dut/stegan_x0/textout1_a34404d5d8/rom/comp0.core_
   instance0/U0/xst_blk_mem_generator/gnativebmg.native_blk_mem_gen/valid.cstr/r
   amloop[2].ram.r/v5_init.ram/SP.SINGLE_PRIM36.SP_REGCLKAU_tiesig
WARNING:Pack:2874 - Trimming timing constraints from pin
   sysgen_hwcosim_iface/sysgen_dut/stegan_x0/textout1_a34404d5d8/rom/comp0.core_
   instance0/U0/xst_blk_mem_generator/gnativebmg.native_blk_mem_gen/valid.cstr/r
   amloop[2].ram.r/v5_init.ram/SP.SINGLE_PRIM36.SP
   of frag REGCLKAL connected to power/ground net
   sysgen_hwcosim_iface/sysgen_dut/stegan_x0/textout1_a34404d5d8/rom/comp0.core_
   instance0/U0/xst_blk_mem_generator/gnativebmg.native_blk_mem_gen/valid.cstr/r
   amloop[2].ram.r/v5_init.ram/SP.SINGLE_PRIM36.SP_REGCLKAL_tiesig
WARNING:Pack:2874 - Trimming timing constraints from pin
   sysgen_hwcosim_iface/sysgen_dut/stegan_x0/textout1_a34404d5d8/rom/comp0.core_
   instance0/U0/xst_blk_mem_generator/gnativebmg.native_blk_mem_gen/valid.cstr/r
   amloop[3].ram.r/v5_init.ram/SP.SINGLE_PRIM36.SP
   of frag REGCLKAU connected to power/ground net
   sysgen_hwcosim_iface/sysgen_dut/stegan_x0/textout1_a34404d5d8/rom/comp0.core_
   instance0/U0/xst_blk_mem_generator/gnativebmg.native_blk_mem_gen/valid.cstr/r
   amloop[3].ram.r/v5_init.ram/SP.SINGLE_PRIM36.SP_REGCLKAU_tiesig
WARNING:Pack:2874 - Trimming timing constraints from pin
   sysgen_hwcosim_iface/sysgen_dut/stegan_x0/textout1_a34404d5d8/rom/comp0.core_
   instance0/U0/xst_blk_mem_generator/gnativebmg.native_blk_mem_gen/valid.cstr/r
   amloop[3].ram.r/v5_init.ram/SP.SINGLE_PRIM36.SP
   of frag REGCLKAL connected to power/ground net
   sysgen_hwcosim_iface/sysgen_dut/stegan_x0/textout1_a34404d5d8/rom/comp0.core_
   instance0/U0/xst_blk_mem_generator/gnativebmg.native_blk_mem_gen/valid.cstr/r
   amloop[3].ram.r/v5_init.ram/SP.SINGLE_PRIM36.SP_REGCLKAL_tiesig
Running directed packing...
Running delay-based LUT packing...
Updating timing models...
INFO:Map:215 - The Interim Design Summary has been generated in the MAP Report
   (.mrp).
Running timing-driven placement...
Total REAL time at the beginning of Placer: 23 secs 
Total CPU  time at the beginning of Placer: 13 secs 

Phase 1.1  Initial Placement Analysis
Phase 1.1  Initial Placement Analysis (Checksum:19efd0d0) REAL time: 25 secs 

Phase 2.7  Design Feasibility Check
Phase 2.7  Design Feasibility Check (Checksum:19efd0d0) REAL time: 25 secs 

Phase 3.31  Local Placement Optimization
Phase 3.31  Local Placement Optimization (Checksum:40440020) REAL time: 25 secs 

Phase 4.37  Local Placement Optimization
Phase 4.37  Local Placement Optimization (Checksum:40440020) REAL time: 25 secs 

Phase 5.33  Local Placement Optimization
Phase 5.33  Local Placement Optimization (Checksum:40440020) REAL time: 39 secs 

Phase 6.32  Local Placement Optimization
Phase 6.32  Local Placement Optimization (Checksum:40440020) REAL time: 40 secs 

Phase 7.2  Initial Clock and IO Placement

Phase 7.2  Initial Clock and IO Placement (Checksum:783d06c2) REAL time: 40 secs 

Phase 8.36  Local Placement Optimization
Phase 8.36  Local Placement Optimization (Checksum:783d06c2) REAL time: 40 secs 

Phase 9.30  Global Clock Region Assignment
Phase 9.30  Global Clock Region Assignment (Checksum:783d06c2) REAL time: 40 secs 

Phase 10.3  Local Placement Optimization
Phase 10.3  Local Placement Optimization (Checksum:783d06c2) REAL time: 40 secs 

Phase 11.5  Local Placement Optimization
Phase 11.5  Local Placement Optimization (Checksum:783d06c2) REAL time: 40 secs 

Phase 12.8  Global Placement
..........................................................
.....
Phase 12.8  Global Placement (Checksum:b440d68c) REAL time: 41 secs 

Phase 13.29  Local Placement Optimization
Phase 13.29  Local Placement Optimization (Checksum:b440d68c) REAL time: 41 secs 

Phase 14.5  Local Placement Optimization
Phase 14.5  Local Placement Optimization (Checksum:b440d68c) REAL time: 41 secs 

Phase 15.18  Placement Optimization
Phase 15.18  Placement Optimization (Checksum:181052fc) REAL time: 48 secs 

Phase 16.5  Local Placement Optimization
Phase 16.5  Local Placement Optimization (Checksum:181052fc) REAL time: 48 secs 

Phase 17.34  Placement Validation
Phase 17.34  Placement Validation (Checksum:181052fc) REAL time: 48 secs 

Total REAL time to Placer completion: 48 secs 
Total CPU  time to Placer completion: 36 secs 
Running post-placement packing...
Writing output files...

Design Summary:
Number of errors:      0
Number of warnings:    8
Slice Logic Utilization:
  Number of Slice Registers:                   440 out of  69,120    1%
    Number used as Flip Flops:                 440
  Number of Slice LUTs:                        465 out of  69,120    1%
    Number used as logic:                      455 out of  69,120    1%
      Number using O6 output only:             280
      Number using O5 output only:             130
      Number using O5 and O6:                   45
    Number used as exclusive route-thru:        10
  Number of route-thrus:                       139
    Number using O6 output only:               139

Slice Logic Distribution:
  Number of occupied Slices:                   206 out of  17,280    1%
  Number of LUT Flip Flop pairs used:          624
    Number with an unused Flip Flop:           184 out of     624   29%
    Number with an unused LUT:                 159 out of     624   25%
    Number of fully used LUT-FF pairs:         281 out of     624   45%
    Number of unique control sets:              24
    Number of slice register sites lost
      to control set restrictions:              40 out of  69,120    1%

  A LUT Flip Flop pair for this architecture represents one LUT paired with
  one Flip Flop within a slice.  A control set is a unique combination of
  clock, reset, set, and enable signals for a registered element.
  The Slice Logic Distribution report is not meaningful if the design is
  over-mapped for a non-slice resource or if Placement fails.
  OVERMAPPING of BRAM resources should be ignored if the design is
  over-mapped for a non-BRAM resource or if placement fails.

IO Utilization:
  Number of bonded IOBs:                         1 out of     640    1%
    Number of LOCed IOBs:                        1 out of       1  100%

Specific Feature Utilization:
  Number of BlockRAM/FIFO:                       6 out of     148    4%
    Number using BlockRAM only:                  6
    Total primitives used:
      Number of 36k BlockRAM used:               6
    Total Memory used (KB):                    216 out of   5,328    4%
  Number of BUFG/BUFGCTRLs:                      4 out of      32   12%
    Number used as BUFGs:                        2
    Number used as BUFGCTRLs:                    2
  Number of BSCANs:                              1 out of       4   25%

Average Fanout of Non-Clock Nets:                3.17

Peak Memory Usage:  391 MB
Total REAL time to MAP completion:  49 secs 
Total CPU time to MAP completion:   37 secs 

Mapping completed.
See MAP report file "jtagcosim_top_map.mrp" for details.



#----------------------------------------------#
# Starting program par
# par -w -ol std -intstyle xflow jtagcosim_top_map.ncd jtagcosim_top.ncd
jtagcosim_top.pcf 
#----------------------------------------------#



Constraints file: jtagcosim_top.pcf.
Loading device for application Rf_Device from file '5vlx110t.nph' in environment c:\xilinx\13.2\ise_ds\ise\.
   "jtagcosim_top" is an NCD, version 3.2, device xc5vlx110t, package ff1136, speed -1
vvvvvvvvvvvvvvvvvvvvvvvvvvvvvvvvvvvvvvvvvvvvvvvvvvvvvvvvvvvvvvvvvvvvvv
INFO:Security:50 - The XILINXD_LICENSE_FILE environment variable is set to '2100@172.20.0.201'.
INFO:Security:52 - The LM_LICENSE_FILE environment variable is set to '2100@172.20.0.201'.
INFO:Security:56 - Part 'xc5vlx110t' is not a WebPack part.
WARNING:Security:43 - No license file was found in the standard Xilinx license directory.
WARNING:Security:44 - No license file was found.
       Please run the Xilinx License Configuration Manager
       (xlcm or "Manage Xilinx Licenses")
       to assist in obtaining a license.
WARNING:Security:42 - Your software subscription period has lapsed. Your current version of Xilinx tools will continue
to function, but you no longer qualify for Xilinx software updates or new releases.

----------------------------------------------------------------------

Initializing temperature to 85.000 Celsius. (default - Range: 0.000 to 85.000 Celsius)
Initializing voltage to 0.950 Volts. (default - Range: 0.950 to 1.050 Volts)


Device speed data version:  "PRODUCTION 1.73 2011-06-20".



Device Utilization Summary:

   Number of BSCANs                          1 out of 4      25%
   Number of BUFGs                           2 out of 32      6%
   Number of BUFGCTRLs                       2 out of 32      6%
   Number of External IOBs                   1 out of 640     1%
      Number of LOCed IOBs                   1 out of 1     100%

   Number of RAMB36_EXPs                     6 out of 148     4%
   Number of Slices                        206 out of 17280   1%
   Number of Slice Registers               440 out of 69120   1%
      Number used as Flip Flops            440
      Number used as Latches                 0
      Number used as LatchThrus              0

   Number of Slice LUTS                    465 out of 69120   1%
   Number of Slice LUT-Flip Flop pairs     624 out of 69120   1%


Overall effort level (-ol):   Standard 
Router effort level (-rl):    Standard 

INFO:Timing:3386 - Intersecting Constraints found and resolved.  For more information, see the TSI report.  Please
   consult the Xilinx Command Line Tools User Guide for information on generating a TSI report.
Starting initial Timing Analysis.  REAL time: 14 secs 
Finished initial Timing Analysis.  REAL time: 14 secs 

Starting Router


Phase  1  : 2826 unrouted;      REAL time: 16 secs 

Phase  2  : 1950 unrouted;      REAL time: 16 secs 

Phase  3  : 356 unrouted;      REAL time: 18 secs 

Phase  4  : 356 unrouted; (Setup:0, Hold:0, Component Switching Limit:0)     REAL time: 25 secs 

Phase  5  : 0 unrouted; (Setup:0, Hold:0, Component Switching Limit:0)     REAL time: 25 secs 

Phase  6  : 0 unrouted; (Setup:0, Hold:0, Component Switching Limit:0)     REAL time: 25 secs 

Phase  7  : 0 unrouted; (Setup:0, Hold:0, Component Switching Limit:0)     REAL time: 25 secs 

Phase  8  : 0 unrouted; (Setup:0, Hold:0, Component Switching Limit:0)     REAL time: 25 secs 

Phase  9  : 0 unrouted; (Setup:0, Hold:0, Component Switching Limit:0)     REAL time: 25 secs 

Phase 10  : 0 unrouted; (Setup:0, Hold:0, Component Switching Limit:0)     REAL time: 25 secs 
Total REAL time to Router completion: 25 secs 
Total CPU time to Router completion: 21 secs 

Partition Implementation Status
-------------------------------

  No Partitions were found in this design.

-------------------------------

Generating "PAR" statistics.

**************************
Generating Clock Report
**************************

+---------------------+--------------+------+------+------------+-------------+
|        Clock Net    |   Resource   |Locked|Fanout|Net Skew(ns)|Max Delay(ns)|
+---------------------+--------------+------+------+------------+-------------+
|sysgen_hwcosim_iface |              |      |      |            |             |
|             /clk_x1 | BUFGCTRL_X0Y1| No   |   26 |  0.203     |  1.898      |
+---------------------+--------------+------+------+------------+-------------+
|     jtag_iface/drck |BUFGCTRL_X0Y30| No   |   58 |  0.340     |  1.963      |
+---------------------+--------------+------+------+------------+-------------+
|sysgen_hwcosim_iface |              |      |      |            |             |
|         /pci_clk_x0 |BUFGCTRL_X0Y10| No   |   83 |  0.315     |  1.966      |
+---------------------+--------------+------+------+------------+-------------+

* Net Skew is the difference between the minimum and maximum routing
only delays for the net. Note this is different from Clock Skew which
is reported in TRCE timing report. Clock Skew is the difference between
the minimum and maximum path delays which includes logic delays.

* The fanout is the number of component pins not the individual BEL loads,
for example SLICE loads not FF loads.

Timing Score: 0 (Setup: 0, Hold: 0, Component Switching Limit: 0)

INFO:Timing:3386 - Intersecting Constraints found and resolved.  For more 
   information, see the TSI report.  Please consult the Xilinx Command Line 
   Tools User Guide for information on generating a TSI report.
Number of Timing Constraints that were not applied: 1

Asterisk (*) preceding a constraint indicates it was not met.
   This may be due to a setup or hold violation.

----------------------------------------------------------------------------------------------------------
  Constraint                                |    Check    | Worst Case |  Best Case | Timing |   Timing   
                                            |             |    Slack   | Achievable | Errors |    Score   
----------------------------------------------------------------------------------------------------------
  TS_hwcosim_sys_clk = PERIOD TIMEGRP "hwco | SETUP       |     1.880ns|     8.120ns|       0|           0
  sim_sys_clk" 100 MHz HIGH 50%             | HOLD        |     0.227ns|            |       0|           0
----------------------------------------------------------------------------------------------------------
  TS_clk_94a0dbaf = PERIOD TIMEGRP "clk_94a | MINPERIOD   |     7.778ns|     2.222ns|       0|           0
  0dbaf" 10 ns HIGH 50%                     |             |            |            |        |            
----------------------------------------------------------------------------------------------------------
  TS_J_TO_U = MAXDELAY FROM TIMEGRP "J_CLK" | SETUP       |    11.748ns|     3.252ns|       0|           0
   TO TIMEGRP "U_CLK" 15 ns                 | HOLD        |     0.465ns|            |       0|           0
----------------------------------------------------------------------------------------------------------
  NET "jtag_iface/drck" PERIOD = 30 ns HIGH | SETUP       |    25.608ns|     4.392ns|       0|           0
   50%                                      | HOLD        |     0.349ns|            |       0|           0
----------------------------------------------------------------------------------------------------------


All constraints were met.


Generating Pad Report.

All signals are completely routed.

Total REAL time to PAR completion: 32 secs 
Total CPU time to PAR completion: 26 secs 

Peak Memory Usage:  338 MB

Placer: Placement generated during map.
Routing: Completed - No errors found.
Timing: Completed - No errors found.

Number of error messages: 0
Number of warning messages: 0
Number of info messages: 1

Writing design to file jtagcosim_top.ncd



PAR done!



#----------------------------------------------#
# Starting program bitgen
# bitgen -w -intstyle xflow -g StartUpClk:JtagClk jtagcosim_top.ncd 
#----------------------------------------------#


